Lab/fixed_device_support/run002/k4_N4_tileable_40nm/and2_latch/MIN_ROUTE_CHAN_WIDTH/and2_latch_formal.vcd
$date
	Wed Oct  9 19:31:15 2024
$end
$version
	Icarus Verilog
$end
$timescale
	1ps
$end
$scope module and2_latch_autocheck_top_tb $end
$var wire 1 ! __config_all_done__ $end
$var wire 1 " __op_clock__ $end
$var wire 1 # __prog_clock__ $end
$var wire 1 $ clk $end
$var wire 1 % enable $end
$var wire 128 & gfpga_pad_GPIO_PAD [0:127] $end
$var wire 1 ' reset $end
$var wire 1 ( set $end
$var wire 1 ) d_fpga $end
$var wire 1 * d_benchmark $end
$var wire 1 + c_fpga $end
$var wire 1 , c_benchmark $end
$var reg 1 - __config_done__ $end
$var reg 1 . __greset__ $end
$var reg 1 / __gset__ $end
$var reg 1 0 __op_clock___reg__ $end
$var reg 1 1 __prog_clock___reg__ $end
$var reg 1 2 __prog_reset__ $end
$var reg 1 3 __prog_set_ $end
$var reg 1 4 a_shared_input $end
$var reg 17 5 address [0:16] $end
$var reg 1 6 b_shared_input $end
$var reg 15 7 bit_index [14:0] $end
$var reg 1 8 c_flag $end
$var reg 1 9 d_flag $end
$var reg 1 : data_in $end
$var reg 1 ; enable_reg__ $end
$var reg 1 < sim_start $end
$var integer 32 = nb_error [31:0] $end
$upscope $end
$enddefinitions $end
#0
$dumpvars
b1 =
1<
0;
0:
09
08
b0 7
06
b0 5
04
13
12
01
00
0/
1.
0-
0,
x+
x*
x)
0(
1'
bx &
1%
0$
0#
0"
0!
$end
#5000
11
#7500
0%
1;
#10000
b1 7
01
03
02
#12500
1%
0;
#15000
1#
11
#17500
0%
1;
#20000
b10 7
b1 5
0#
01
#22500
1%
0;
#25000
1#
11
#27500
0%
1;
#30000
b11 7
b10 5
1:
0#
01
#32500
bx0xxxxxxxxxxxxxxxxxxxxxxxxxxxxxxx &
1%
0;
#35000
1#
11
#37500
0%
1;
#40000
b100 7
b11 5
0:
0#
01
#42500
1%
0;
#45000
1#
11
#47500
0%
1;
#50000
b101 7
b100 5
1:
0#
01
#52500
bx0xxxxxxxxxxxxxxxxxxxxxxxxxxxxxxxxxxxxxxxxxxxxxxxxxxxxxxxxxxxxxxx0xxxxxxxxxxxxxxxxxxxxxxxxxxxxxxx &
1%
0;
#55000
1#
11
#57500
0%
1;
#60000
b110 7
b101 5
0:
0#
01
#62500
1%
0;
#65000
1#
11
#67500
0%
1;
#70000
b111 7
b110 5
0#
01
#72500
1%
0;
#75000
1#
11
#77500
0%
1;
#80000
b1000 7
b1000 5
1:
0#
01
#82500
1%
0;
#85000
1#
11
#87500
0%
1;
#90000
b1001 7
b1001 5
0:
0#
01
#92500
1%
0;
#95000
1#
11
#97500
0%
1;
#100000
b1010 7
b1010 5
0#
01
#102500
1%
0;
#105000
1#
11
#107500
0%
1;
#110000
b1011 7
b1100 5
0#
01
#112500
1%
0;
#115000
1#
11
#117500
0%
1;
#120000
b1100 7
b1101 5
0#
01
#122500
1%
0;
#125000
1#
11
#127500
0%
1;
#130000
b1101 7
b1110 5
0#
01
#132500
1%
0;
#135000
1#
11
#137500
0%
1;
#140000
b1110 7
b10000 5
0#
01
#142500
1%
0;
#145000
1#
11
#147500
0%
1;
#150000
b1111 7
b10001 5
0#
01
#152500
1%
0;
#155000
1#
11
#157500
0%
1;
#160000
b10000 7
b10010 5
0#
01
#162500
1%
0;
#165000
1#
11
#167500
0%
1;
#170000
b10001 7
b10100 5
1:
0#
01
#172500
b0xxxxxxxxxxxxxxxxxxxxxxxxxxxxxxx0xxxxxxxxxxxxxxxxxxxxxxxxxxxxxxxxxxxxxxxxxxxxxxxxxxxxxxxxxxxxxxx0xxxxxxxxxxxxxxxxxxxxxxxxxxxxxxx &
1%
0;
#175000
1#
11
#177500
0%
1;
#180000
b10010 7
b10101 5
0:
0#
01
#182500
1%
0;
#185000
1#
11
#187500
0%
1;
#190000
b10011 7
b10110 5
0#
01
#192500
1%
0;
#195000
1#
11
#197500
0%
1;
#200000
b10100 7
b11000 5
1:
0#
01
#202500
b0xxxxxxxxxxxxxxxxxxxxxxxxxxxxxxx0xxxxxxxxxxxxxxxxxxxxxxxxxxxxxxx0xxxxxxxxxxxxxxxxxxxxxxxxxxxxxxx0xxxxxxxxxxxxxxxxxxxxxxxxxxxxxxx &
1%
0;
#205000
1#
11
#207500
0%
1;
#210000
b10101 7
b11001 5
0:
0#
01
#212500
1%
0;
#215000
1#
11
#217500
0%
1;
#220000
b10110 7
b11010 5
0#
01
#222500
1%
0;
#225000
1#
11
#227500
0%
1;
#230000
b10111 7
b11100 5
0#
01
#232500
1%
0;
#235000
1#
11
#237500
0%
1;
#240000
b11000 7
b11101 5
0#
01
#242500
1%
0;
#245000
1#
11
#247500
0%
1;
#250000
b11001 7
b11110 5
0#
01
#252500
1%
0;
#255000
1#
11
#257500
0%
1;
#260000
b11010 7
b100000 5
0#
01
#262500
1%
0;
#265000
1#
11
#267500
0%
1;
#270000
b11011 7
b100001 5
0#
01
#272500
1%
0;
#275000
1#
11
#277500
0%
1;
#280000
b11100 7
b100010 5
0#
01
#282500
1%
0;
#285000
1#
11
#287500
0%
1;
#290000
b11101 7
b100100 5
1:
0#
01
#292500
b0xxxxxxxxxxxxxxx0xxxxxxxxxxxxxxx0xxxxxxxxxxxxxxxxxxxxxxxxxxxxxxx0xxxxxxxxxxxxxxxxxxxxxxxxxxxxxxx0xxxxxxxxxxxxxxxxxxxxxxxxxxxxxxx &
1%
0;
#295000
1#
11
#297500
0%
1;
#300000
b11110 7
b100101 5
0:
0#
01
#302500
1%
0;
#305000
1#
11
#307500
0%
1;
#310000
b11111 7
b100110 5
0#
01
#312500
1%
0;
#315000
1#
11
#317500
0%
1;
#320000
b100000 7
b101000 5
0#
01
#322500
1%
0;
#325000
1#
11
#327500
0%
1;
#330000
b100001 7
b101001 5
0#
01
#332500
1%
0;
#335000
1#
11
#337500
0%
1;
#340000
b100010 7
b101010 5
0#
01
#342500
1%
0;
#345000
1#
11
#347500
0%
1;
#350000
b100011 7
b101100 5
1:
0#
01
#352500
b0xxxxxxxxxxxxxxx0xxxxxxxxxxxxxxx0xxxxxxxxxxxxxxxxxxxxxxxxxxxxxxx0xxxxxxxxxxxxxxxxxxxxxxxxxxxxxxx0xxxxxxxxxxxxxxx0xxxxxxxxxxxxxxx &
1%
0;
#355000
1#
11
#357500
0%
1;
#360000
b100100 7
b101101 5
0:
0#
01
#362500
1%
0;
#365000
1#
11
#367500
0%
1;
#370000
b100101 7
b101110 5
0#
01
#372500
1%
0;
#375000
1#
11
#377500
0%
1;
#380000
b100110 7
b110000 5
1:
0#
01
#382500
b0xxxxxxxxxxxxxxx0xxxxxxxxxxxxxxx0xxxxxxxxxxxxxxxxxxxxxxxxxxxxxxx0xxxxxxxxxxxxxxx0xxxxxxxxxxxxxxx0xxxxxxxxxxxxxxx0xxxxxxxxxxxxxxx &
1%
0;
#385000
1#
11
#387500
0%
1;
#390000
b100111 7
b110001 5
0:
0#
01
#392500
1%
0;
#395000
1#
11
#397500
0%
1;
#400000
b101000 7
b110010 5
0#
01
#402500
1%
0;
#405000
1#
11
#407500
0%
1;
#410000
b101001 7
b110100 5
0#
01
#412500
1%
0;
#415000
1#
11
#417500
0%
1;
#420000
b101010 7
b110101 5
0#
01
#422500
1%
0;
#425000
1#
11
#427500
0%
1;
#430000
b101011 7
b110110 5
0#
01
#432500
1%
0;
#435000
1#
11
#437500
0%
1;
#440000
b101100 7
b111000 5
1:
0#
01
#442500
b0xxxxxxxxxxxxxxx0xxxxxxxxxxxxxxx0xxxxxxxxxxxxxxx0xxxxxxxxxxxxxxx0xxxxxxxxxxxxxxx0xxxxxxxxxxxxxxx0xxxxxxxxxxxxxxx0xxxxxxxxxxxxxxx &
1%
0;
#445000
1#
11
#447500
0%
1;
#450000
b101101 7
b111001 5
0:
0#
01
#452500
1%
0;
#455000
1#
11
#457500
0%
1;
#460000
b101110 7
b111010 5
0#
01
#462500
1%
0;
#465000
1#
11
#467500
0%
1;
#470000
b101111 7
b111100 5
0#
01
#472500
1%
0;
#475000
1#
11
#477500
0%
1;
#480000
b110000 7
b111101 5
0#
01
#482500
1%
0;
#485000
1#
11
#487500
0%
1;
#490000
b110001 7
b111110 5
0#
01
#492500
1%
0;
#495000
1#
11
#497500
0%
1;
#500000
b110010 7
b1000000 5
0#
01
#502500
1%
0;
#505000
1#
11
#507500
0%
1;
#510000
b110011 7
b1000001 5
0#
01
#512500
1%
0;
#515000
1#
11
#517500
0%
1;
#520000
b110100 7
b1000010 5
0#
01
#522500
1%
0;
#525000
1#
11
#527500
0%
1;
#530000
b110101 7
b1000100 5
1:
0#
01
#532500
b0xxxxxxxxxxxxxxx0xxxxxxx0xxxxxxx0xxxxxxxxxxxxxxx0xxxxxxxxxxxxxxx0xxxxxxxxxxxxxxx0xxxxxxxxxxxxxxx0xxxxxxxxxxxxxxx0xxxxxxxxxxxxxxx &
1%
0;
#535000
1#
11
#537500
0%
1;
#540000
b110110 7
b1000101 5
0:
0#
01
#542500
1%
0;
#545000
1#
11
#547500
0%
1;
#550000
b110111 7
b1000110 5
0#
01
#552500
1%
0;
#555000
1#
11
#557500
0%
1;
#560000
b111000 7
b1001000 5
1:
0#
01
#562500
b0xxxxxxxxxxxxxxx0xxxxxxx0xxxxxxx0xxxxxxxxxxxxxxx0xxxxxxxxxxxxxxx0xxxxxxx0xxxxxxx0xxxxxxxxxxxxxxx0xxxxxxxxxxxxxxx0xxxxxxxxxxxxxxx &
1%
0;
#565000
1#
11
#567500
0%
1;
#570000
b111001 7
b1001001 5
0:
0#
01
#572500
1%
0;
#575000
1#
11
#577500
0%
1;
#580000
b111010 7
b1001010 5
0#
01
#582500
1%
0;
#585000
1#
11
#587500
0%
1;
#590000
b111011 7
b1001100 5
0#
01
#592500
1%
0;
#595000
1#
11
#597500
0%
1;
#600000
b111100 7
b1001101 5
0#
01
#602500
1%
0;
#605000
1#
11
#607500
0%
1;
#610000
b111101 7
b1001110 5
0#
01
#612500
1%
0;
#615000
1#
11
#617500
0%
1;
#620000
b111110 7
b1010000 5
0#
01
#622500
1%
0;
#625000
1#
11
#627500
0%
1;
#630000
b111111 7
b1010001 5
0#
01
#632500
1%
0;
#635000
1#
11
#637500
0%
1;
#640000
b1000000 7
b1010010 5
0#
01
#642500
1%
0;
#645000
1#
11
#647500
0%
1;
#650000
b1000001 7
b1010100 5
0#
01
#652500
1%
0;
#655000
1#
11
#657500
0%
1;
#660000
b1000010 7
b1010101 5
0#
01
#662500
1%
0;
#665000
1#
11
#667500
0%
1;
#670000
b1000011 7
b1010110 5
0#
01
#672500
1%
0;
#675000
1#
11
#677500
0%
1;
#680000
b1000100 7
b1011000 5
1:
0#
01
#682500
b0xxxxxxxxxxxxxxx0xxxxxxx0xxxxxxx0xxxxxxxxxxxxxxx0xxxxxxx0xxxxxxx0xxxxxxx0xxxxxxx0xxxxxxxxxxxxxxx0xxxxxxxxxxxxxxx0xxxxxxxxxxxxxxx &
1%
0;
#685000
1#
11
#687500
0%
1;
#690000
b1000101 7
b1011001 5
0:
0#
01
#692500
1%
0;
#695000
1#
11
#697500
0%
1;
#700000
b1000110 7
b1011010 5
0#
01
#702500
1%
0;
#705000
1#
11
#707500
0%
1;
#710000
b1000111 7
b1011100 5
1:
0#
01
#712500
b0xxxxxxxxxxxxxxx0xxxxxxx0xxxxxxx0xxxxxxxxxxxxxxx0xxxxxxx0xxxxxxx0xxxxxxx0xxxxxxx0xxxxxxxxxxxxxxx0xxxxxxx0xxxxxxx0xxxxxxxxxxxxxxx &
1%
0;
#715000
1#
11
#717500
0%
1;
#720000
b1001000 7
b1011101 5
0:
0#
01
#722500
1%
0;
#725000
1#
11
#727500
0%
1;
#730000
b1001001 7
b1011110 5
0#
01
#732500
1%
0;
#735000
1#
11
#737500
0%
1;
#740000
b1001010 7
b1100000 5
1:
0#
01
#742500
b0xxxxxxxxxxxxxxx0xxxxxxx0xxxxxxx0xxxxxxxxxxxxxxx0xxxxxxx0xxxxxxx0xxxxxxx0xxxxxxx0xxxxxxx0xxxxxxx0xxxxxxx0xxxxxxx0xxxxxxxxxxxxxxx &
1%
0;
#745000
1#
11
#747500
0%
1;
#750000
b1001011 7
b1100001 5
0:
0#
01
#752500
1%
0;
#755000
1#
11
#757500
0%
1;
#760000
b1001100 7
b1100010 5
0#
01
#762500
1%
0;
#765000
1#
11
#767500
0%
1;
#770000
b1001101 7
b1100100 5
1:
0#
01
#772500
b0xxxxxxx0xxxxxxx0xxxxxxx0xxxxxxx0xxxxxxxxxxxxxxx0xxxxxxx0xxxxxxx0xxxxxxx0xxxxxxx0xxxxxxx0xxxxxxx0xxxxxxx0xxxxxxx0xxxxxxxxxxxxxxx &
1%
0;
#775000
1#
11
#777500
0%
1;
#780000
b1001110 7
b1100101 5
0:
0#
01
#782500
1%
0;
#785000
1#
11
#787500
0%
1;
#790000
b1001111 7
b1100110 5
0#
01
#792500
1%
0;
#795000
1#
11
#797500
0%
1;
#800000
b1010000 7
b1101000 5
0#
01
#802500
1%
0;
#805000
1#
11
#807500
0%
1;
#810000
b1010001 7
b1101001 5
0#
01
#812500
1%
0;
#815000
1#
11
#817500
0%
1;
#820000
b1010010 7
b1101010 5
0#
01
#822500
1%
0;
#825000
1#
11
#827500
0%
1;
#830000
b1010011 7
b1101100 5
0#
01
#832500
1%
0;
#835000
1#
11
#837500
0%
1;
#840000
b1010100 7
b1101101 5
0#
01
#842500
1%
0;
#845000
1#
11
#847500
0%
1;
#850000
b1010101 7
b1101110 5
0#
01
#852500
1%
0;
#855000
1#
11
#857500
0%
1;
#860000
b1010110 7
b1110000 5
1:
0#
01
#862500
1%
0;
#865000
1#
11
#867500
0%
1;
#870000
b1010111 7
b1110001 5
0:
0#
01
#872500
1%
0;
#875000
1#
11
#877500
0%
1;
#880000
b1011000 7
b1110010 5
0#
01
#882500
1%
0;
#885000
1#
11
#887500
0%
1;
#890000
b1011001 7
b1110100 5
1:
0#
01
#892500
b0xxxxxxx0xxxxxxx0xxxxxxx0xxxxxxx0xxxxxxxxxxxxxxx0xxxxxxx0xxxxxxx0xxxxxxx0xxxxxxx0xxxxxxx0xxxxxxx0xxxxxxx0xxxxxxx0xxxxxxx0xxxxxxx &
1%
0;
#895000
1#
11
#897500
0%
1;
#900000
b1011010 7
b1110101 5
0:
0#
01
#902500
1%
0;
#905000
1#
11
#907500
0%
1;
#910000
b1011011 7
b1110110 5
0#
01
#912500
1%
0;
#915000
1#
11
#917500
0%
1;
#920000
b1011100 7
b1111000 5
1:
0#
01
#922500
b0xxxxxxx0xxxxxxx0xxxxxxx0xxxxxxx0xxxxxxx0xxxxxxx0xxxxxxx0xxxxxxx0xxxxxxx0xxxxxxx0xxxxxxx0xxxxxxx0xxxxxxx0xxxxxxx0xxxxxxx0xxxxxxx &
1%
0;
#925000
1#
11
#927500
0%
1;
#930000
b1011101 7
b1111001 5
0:
0#
01
#932500
1%
0;
#935000
1#
11
#937500
0%
1;
#940000
b1011110 7
b1111010 5
0#
01
#942500
1%
0;
#945000
1#
11
#947500
0%
1;
#950000
b1011111 7
b1111100 5
0#
01
#952500
1%
0;
#955000
1#
11
#957500
0%
1;
#960000
b1100000 7
b1111101 5
0#
01
#962500
1%
0;
#965000
1#
11
#967500
0%
1;
#970000
b1100001 7
b1111110 5
0#
01
#972500
1%
0;
#975000
1#
11
#977500
0%
1;
#980000
b1100010 7
b10000001 5
0#
01
#982500
1%
0;
#985000
1#
11
#987500
0%
1;
#990000
b1100011 7
b10000011 5
0#
01
#992500
1%
0;
#995000
1#
11
#997500
0%
1;
#1000000
b1100100 7
b10000101 5
0#
01
#1002500
1%
0;
#1005000
1#
11
#1007500
0%
1;
#1010000
b1100101 7
b10000110 5
0#
01
#1012500
1%
0;
#1015000
1#
11
#1017500
0%
1;
#1020000
b1100110 7
b10001001 5
0#
01
#1022500
1%
0;
#1025000
1#
11
#1027500
0%
1;
#1030000
b1100111 7
b10001010 5
0#
01
#1032500
1%
0;
#1035000
1#
11
#1037500
0%
1;
#1040000
b1101000 7
b10001101 5
0#
01
#1042500
1%
0;
#1045000
1#
11
#1047500
0%
1;
#1050000
b1101001 7
b10001110 5
0#
01
#1052500
1%
0;
#1055000
1#
11
#1057500
0%
1;
#1060000
b1101010 7
b10010001 5
0#
01
#1062500
1%
0;
#1065000
1#
11
#1067500
0%
1;
#1070000
b1101011 7
b10010010 5
0#
01
#1072500
1%
0;
#1075000
1#
11
#1077500
0%
1;
#1080000
b1101100 7
b10010101 5
0#
01
#1082500
1%
0;
#1085000
1#
11
#1087500
0%
1;
#1090000
b1101101 7
b10010110 5
0#
01
#1092500
1%
0;
#1095000
1#
11
#1097500
0%
1;
#1100000
b1101110 7
b10011001 5
0#
01
#1102500
1%
0;
#1105000
1#
11
#1107500
0%
1;
#1110000
b1101111 7
b10011010 5
0#
01
#1112500
1%
0;
#1115000
1#
11
#1117500
0%
1;
#1120000
b1110000 7
b10011101 5
0#
01
#1122500
1%
0;
#1125000
1#
11
#1127500
0%
1;
#1130000
b1110001 7
b10011110 5
0#
01
#1132500
1%
0;
#1135000
1#
11
#1137500
0%
1;
#1140000
b1110010 7
b100000001 5
0#
01
#1142500
1%
0;
#1145000
1#
11
#1147500
0%
1;
#1150000
b1110011 7
b100000011 5
0#
01
#1152500
1%
0;
#1155000
1#
11
#1157500
0%
1;
#1160000
b1110100 7
b100000101 5
0#
01
#1162500
1%
0;
#1165000
1#
11
#1167500
0%
1;
#1170000
b1110101 7
b100000110 5
0#
01
#1172500
1%
0;
#1175000
1#
11
#1177500
0%
1;
#1180000
b1110110 7
b100001001 5
0#
01
#1182500
1%
0;
#1185000
1#
11
#1187500
0%
1;
#1190000
b1110111 7
b100001010 5
0#
01
#1192500
1%
0;
#1195000
1#
11
#1197500
0%
1;
#1200000
b1111000 7
b100001101 5
0#
01
#1202500
1%
0;
#1205000
1#
11
#1207500
0%
1;
#1210000
b1111001 7
b100001110 5
0#
01
#1212500
1%
0;
#1215000
1#
11
#1217500
0%
1;
#1220000
b1111010 7
b100010001 5
0#
01
#1222500
1%
0;
#1225000
1#
11
#1227500
0%
1;
#1230000
b1111011 7
b100010010 5
0#
01
#1232500
1%
0;
#1235000
1#
11
#1237500
0%
1;
#1240000
b1111100 7
b100010101 5
0#
01
#1242500
1%
0;
#1245000
1#
11
#1247500
0%
1;
#1250000
b1111101 7
b100010110 5
0#
01
#1252500
1%
0;
#1255000
1#
11
#1257500
0%
1;
#1260000
b1111110 7
b100011001 5
0#
01
#1262500
1%
0;
#1265000
1#
11
#1267500
0%
1;
#1270000
b1111111 7
b100011010 5
0#
01
#1272500
1%
0;
#1275000
1#
11
#1277500
0%
1;
#1280000
b10000000 7
b100011101 5
0#
01
#1282500
1%
0;
#1285000
1#
11
#1287500
0%
1;
#1290000
b10000001 7
b100011110 5
0#
01
#1292500
1%
0;
#1295000
1#
11
#1297500
0%
1;
#1300000
b10000010 7
b1000000001 5
0#
01
#1302500
1%
0;
#1305000
1#
11
#1307500
0%
1;
#1310000
b10000011 7
b1000000011 5
0#
01
#1312500
1%
0;
#1315000
1#
11
#1317500
0%
1;
#1320000
b10000100 7
b1000000101 5
0#
01
#1322500
1%
0;
#1325000
1#
11
#1327500
0%
1;
#1330000
b10000101 7
b1000000110 5
0#
01
#1332500
1%
0;
#1335000
1#
11
#1337500
0%
1;
#1340000
b10000110 7
b1000001001 5
0#
01
#1342500
1%
0;
#1345000
1#
11
#1347500
0%
1;
#1350000
b10000111 7
b1000001010 5
0#
01
#1352500
1%
0;
#1355000
1#
11
#1357500
0%
1;
#1360000
b10001000 7
b1000001100 5
0#
01
#1362500
1%
0;
#1365000
1#
11
#1367500
0%
1;
#1370000
b10001001 7
b1000001101 5
0#
01
#1372500
1%
0;
#1375000
1#
11
#1377500
0%
1;
#1380000
b10001010 7
b1000001110 5
0#
01
#1382500
1%
0;
#1385000
1#
11
#1387500
0%
1;
#1390000
b10001011 7
b1000010000 5
0#
01
#1392500
1%
0;
#1395000
1#
11
#1397500
0%
1;
#1400000
b10001100 7
b1000010001 5
0#
01
#1402500
1%
0;
#1405000
1#
11
#1407500
0%
1;
#1410000
b10001101 7
b1000010010 5
0#
01
#1412500
1%
0;
#1415000
1#
11
#1417500
0%
1;
#1420000
b10001110 7
b1000010101 5
0#
01
#1422500
1%
0;
#1425000
1#
11
#1427500
0%
1;
#1430000
b10001111 7
b1000010110 5
0#
01
#1432500
1%
0;
#1435000
1#
11
#1437500
0%
1;
#1440000
b10010000 7
b1000011001 5
0#
01
#1442500
1%
0;
#1445000
1#
11
#1447500
0%
1;
#1450000
b10010001 7
b1000011010 5
0#
01
#1452500
1%
0;
#1455000
1#
11
#1457500
0%
1;
#1460000
b10010010 7
b1000011101 5
0#
01
#1462500
1%
0;
#1465000
1#
11
#1467500
0%
1;
#1470000
b10010011 7
b1000011110 5
0#
01
#1472500
1%
0;
#1475000
1#
11
#1477500
0%
1;
#1480000
b10010100 7
b1000111100 5
0#
01
#1482500
1%
0;
#1485000
1#
11
#1487500
0%
1;
#1490000
b10010101 7
b1001000000 5
0#
01
#1492500
1%
0;
#1495000
1#
11
#1497500
0%
1;
#1500000
b10010110 7
b1001000001 5
0#
01
#1502500
1%
0;
#1505000
1#
11
#1507500
0%
1;
#1510000
b10010111 7
b1001000010 5
0#
01
#1512500
1%
0;
#1515000
1#
11
#1517500
0%
1;
#1520000
b10011000 7
b1001000110 5
0#
01
#1522500
1%
0;
#1525000
1#
11
#1527500
0%
1;
#1530000
b10011001 7
b1001001001 5
0#
01
#1532500
1%
0;
#1535000
1#
11
#1537500
0%
1;
#1540000
b10011010 7
b1001001010 5
0#
01
#1542500
1%
0;
#1545000
1#
11
#1547500
0%
1;
#1550000
b10011011 7
b1001001101 5
0#
01
#1552500
1%
0;
#1555000
1#
11
#1557500
0%
1;
#1560000
b10011100 7
b1001001110 5
0#
01
#1562500
1%
0;
#1565000
1#
11
#1567500
0%
1;
#1570000
b10011101 7
b1001010001 5
0#
01
#1572500
1%
0;
#1575000
1#
11
#1577500
0%
1;
#1580000
b10011110 7
b1001010010 5
0#
01
#1582500
1%
0;
#1585000
1#
11
#1587500
0%
1;
#1590000
b10011111 7
b1001010101 5
0#
01
#1592500
1%
0;
#1595000
1#
11
#1597500
0%
1;
#1600000
b10100000 7
b1001010110 5
0#
01
#1602500
1%
0;
#1605000
1#
11
#1607500
0%
1;
#1610000
b10100001 7
b1001011001 5
0#
01
#1612500
1%
0;
#1615000
1#
11
#1617500
0%
1;
#1620000
b10100010 7
b1001011010 5
0#
01
#1622500
1%
0;
#1625000
1#
11
#1627500
0%
1;
#1630000
b10100011 7
b1001011101 5
0#
01
#1632500
1%
0;
#1635000
1#
11
#1637500
0%
1;
#1640000
b10100100 7
b1001011110 5
0#
01
#1642500
1%
0;
#1645000
1#
11
#1647500
0%
1;
#1650000
b10100101 7
b1001101100 5
0#
01
#1652500
1%
0;
#1655000
1#
11
#1657500
0%
1;
#1660000
b10100110 7
b1001110000 5
0#
01
#1662500
1%
0;
#1665000
1#
11
#1667500
0%
1;
#1670000
b10100111 7
b1100000001 5
0#
01
#1672500
1%
0;
#1675000
1#
11
#1677500
0%
1;
#1680000
b10101000 7
b1100000011 5
0#
01
#1682500
1%
0;
#1685000
1#
11
#1687500
0%
1;
#1690000
b10101001 7
b1100000101 5
0#
01
#1692500
1%
0;
#1695000
1#
11
#1697500
0%
1;
#1700000
b10101010 7
b1100000110 5
0#
01
#1702500
1%
0;
#1705000
1#
11
#1707500
0%
1;
#1710000
b10101011 7
b1100001001 5
0#
01
#1712500
1%
0;
#1715000
1#
11
#1717500
0%
1;
#1720000
b10101100 7
b1100001010 5
0#
01
#1722500
1%
0;
#1725000
1#
11
#1727500
0%
1;
#1730000
b10101101 7
b1100001101 5
0#
01
#1732500
1%
0;
#1735000
1#
11
#1737500
0%
1;
#1740000
b10101110 7
b1100001110 5
0#
01
#1742500
1%
0;
#1745000
1#
11
#1747500
0%
1;
#1750000
b10101111 7
b1100010001 5
0#
01
#1752500
1%
0;
#1755000
1#
11
#1757500
0%
1;
#1760000
b10110000 7
b1100010010 5
0#
01
#1762500
1%
0;
#1765000
1#
11
#1767500
0%
1;
#1770000
b10110001 7
b1100010101 5
0#
01
#1772500
1%
0;
#1775000
1#
11
#1777500
0%
1;
#1780000
b10110010 7
b1100010110 5
0#
01
#1782500
1%
0;
#1785000
1#
11
#1787500
0%
1;
#1790000
b10110011 7
b1100011001 5
0#
01
#1792500
1%
0;
#1795000
1#
11
#1797500
0%
1;
#1800000
b10110100 7
b1100011010 5
0#
01
#1802500
1%
0;
#1805000
1#
11
#1807500
0%
1;
#1810000
b10110101 7
b1100011101 5
0#
01
#1812500
1%
0;
#1815000
1#
11
#1817500
0%
1;
#1820000
b10110110 7
b1100011110 5
0#
01
#1822500
1%
0;
#1825000
1#
11
#1827500
0%
1;
#1830000
b10110111 7
b10000000000 5
0#
01
#1832500
1%
0;
#1835000
1#
11
#1837500
0%
1;
#1840000
b10111000 7
b10000000001 5
0#
01
#1842500
1%
0;
#1845000
1#
11
#1847500
0%
1;
#1850000
b10111001 7
b10000000011 5
0#
01
#1852500
1%
0;
#1855000
1#
11
#1857500
0%
1;
#1860000
b10111010 7
b10000000101 5
0#
01
#1862500
1%
0;
#1865000
1#
11
#1867500
0%
1;
#1870000
b10111011 7
b10000000110 5
0#
01
#1872500
1%
0;
#1875000
1#
11
#1877500
0%
1;
#1880000
b10111100 7
b10000001000 5
0#
01
#1882500
1%
0;
#1885000
1#
11
#1887500
0%
1;
#1890000
b10111101 7
b10000001001 5
0#
01
#1892500
1%
0;
#1895000
1#
11
#1897500
0%
1;
#1900000
b10111110 7
b10000001010 5
0#
01
#1902500
1%
0;
#1905000
1#
11
#1907500
0%
1;
#1910000
b10111111 7
b10000001100 5
0#
01
#1912500
1%
0;
#1915000
1#
11
#1917500
0%
1;
#1920000
b11000000 7
b10000001101 5
0#
01
#1922500
1%
0;
#1925000
1#
11
#1927500
0%
1;
#1930000
b11000001 7
b10000001110 5
0#
01
#1932500
1%
0;
#1935000
1#
11
#1937500
0%
1;
#1940000
b11000010 7
b10000010000 5
0#
01
#1942500
1%
0;
#1945000
1#
11
#1947500
0%
1;
#1950000
b11000011 7
b10000010001 5
0#
01
#1952500
1%
0;
#1955000
1#
11
#1957500
0%
1;
#1960000
b11000100 7
b10000010010 5
0#
01
#1962500
1%
0;
#1965000
1#
11
#1967500
0%
1;
#1970000
b11000101 7
b10000010101 5
0#
01
#1972500
1%
0;
#1975000
1#
11
#1977500
0%
1;
#1980000
b11000110 7
b10000010110 5
0#
01
#1982500
1%
0;
#1985000
1#
11
#1987500
0%
1;
#1990000
b11000111 7
b10000011001 5
0#
01
#1992500
1%
0;
#1995000
1#
11
#1997500
0%
1;
#2000000
b11001000 7
b10000011010 5
1:
0#
01
#2002500
1%
0;
#2005000
1#
11
#2007500
0%
1;
#2010000
b11001001 7
b10000011100 5
0:
0#
01
#2012500
1%
0;
#2015000
1#
11
#2017500
0%
1;
#2020000
b11001010 7
b10000011101 5
0#
01
#2022500
1%
0;
#2025000
1#
11
#2027500
0%
1;
#2030000
b11001011 7
b10000011110 5
0#
01
#2032500
1%
0;
#2035000
1#
11
#2037500
0%
1;
#2040000
b11001100 7
b10000100000 5
0#
01
#2042500
1%
0;
#2045000
1#
11
#2047500
0%
1;
#2050000
b11001101 7
b10000100101 5
0#
01
#2052500
1%
0;
#2055000
1#
11
#2057500
0%
1;
#2060000
b11001110 7
b10000101000 5
0#
01
#2062500
1%
0;
#2065000
1#
11
#2067500
0%
1;
#2070000
b11001111 7
b10000101101 5
0#
01
#2072500
1%
0;
#2075000
1#
11
#2077500
0%
1;
#2080000
b11010000 7
b10000110100 5
0#
01
#2082500
1%
0;
#2085000
1#
11
#2087500
0%
1;
#2090000
b11010001 7
b10000110101 5
0#
01
#2092500
1%
0;
#2095000
1#
11
#2097500
0%
1;
#2100000
b11010010 7
b10000111100 5
0#
01
#2102500
1%
0;
#2105000
1#
11
#2107500
0%
1;
#2110000
b11010011 7
b10000111101 5
0#
01
#2112500
1%
0;
#2115000
1#
11
#2117500
0%
1;
#2120000
b11010100 7
b10001000000 5
0#
01
#2122500
1%
0;
#2125000
1#
11
#2127500
0%
1;
#2130000
b11010101 7
b10001000001 5
0#
01
#2132500
1%
0;
#2135000
1#
11
#2137500
0%
1;
#2140000
b11010110 7
b10001000010 5
0#
01
#2142500
1%
0;
#2145000
1#
11
#2147500
0%
1;
#2150000
b11010111 7
b10001000101 5
0#
01
#2152500
1%
0;
#2155000
1#
11
#2157500
0%
1;
#2160000
b11011000 7
b10001000110 5
0#
01
#2162500
1%
0;
#2165000
1#
11
#2167500
0%
1;
#2170000
b11011001 7
b10001001001 5
0#
01
#2172500
1%
0;
#2175000
1#
11
#2177500
0%
1;
#2180000
b11011010 7
b10001001010 5
0#
01
#2182500
1%
0;
#2185000
1#
11
#2187500
0%
1;
#2190000
b11011011 7
b10001001100 5
0#
01
#2192500
1%
0;
#2195000
1#
11
#2197500
0%
1;
#2200000
b11011100 7
b10001001101 5
0#
01
#2202500
1%
0;
#2205000
1#
11
#2207500
0%
1;
#2210000
b11011101 7
b10001001110 5
0#
01
#2212500
1%
0;
#2215000
1#
11
#2217500
0%
1;
#2220000
b11011110 7
b10001010000 5
0#
01
#2222500
1%
0;
#2225000
1#
11
#2227500
0%
1;
#2230000
b11011111 7
b10001010001 5
0#
01
#2232500
1%
0;
#2235000
1#
11
#2237500
0%
1;
#2240000
b11100000 7
b10001010010 5
0#
01
#2242500
1%
0;
#2245000
1#
11
#2247500
0%
1;
