Lab/fixed_device_support/run001/k4_N4_tileable_40nm/or2/MIN_ROUTE_CHAN_WIDTH/or2_formal.vcd
$date
	Wed Oct  9 19:23:32 2024
$end
$version
	Icarus Verilog
$end
$timescale
	1ps
$end
$scope module or2_autocheck_top_tb $end
$var wire 1 ! __config_all_done__ $end
$var wire 1 " __op_clock__ $end
$var wire 1 # __prog_clock__ $end
$var wire 1 $ clk $end
$var wire 1 % enable $end
$var wire 64 & gfpga_pad_GPIO_PAD [0:63] $end
$var wire 1 ' reset $end
$var wire 1 ( set $end
$var wire 1 ) c_fpga $end
$var wire 1 * c_benchmark $end
$var reg 1 + __config_done__ $end
$var reg 1 , __greset__ $end
$var reg 1 - __gset__ $end
$var reg 1 . __op_clock___reg__ $end
$var reg 1 / __prog_clock___reg__ $end
$var reg 1 0 __prog_reset__ $end
$var reg 1 1 __prog_set_ $end
$var reg 1 2 a_shared_input $end
$var reg 16 3 address [0:15] $end
$var reg 1 4 b_shared_input $end
$var reg 13 5 bit_index [12:0] $end
$var reg 1 6 c_flag $end
$var reg 1 7 data_in $end
$var reg 1 8 enable_reg__ $end
$var reg 1 9 sim_start $end
$var integer 32 : nb_error [31:0] $end
$upscope $end
$enddefinitions $end
#0
$dumpvars
b1 :
19
08
07
06
b0 5
14
b0 3
12
11
10
0/
0.
0-
1,
0+
1*
x)
0(
1'
bx &
1%
0$
0#
0"
0!
$end
#5000
1/
#7500
0%
18
#10000
b1 5
0/
01
00
#12500
1%
08
#15000
1#
1/
#17500
0%
18
#20000
b10 5
b1 3
0#
0/
#22500
1%
08
#25000
1#
1/
#27500
0%
18
#30000
b11 5
b10 3
17
0#
0/
#32500
bx0xxxxxxxxxxxxxxx &
1%
08
#35000
1#
1/
#37500
0%
18
#40000
b100 5
b100 3
0#
0/
#42500
bx0xxxxxxxxxxxxxxxxxxxxxxxxxxxxxxx0xxxxxxxxxxxxxxx &
1%
08
#45000
1#
1/
#47500
0%
18
#50000
b101 5
b110 3
07
0#
0/
#52500
1%
08
#55000
1#
1/
#57500
0%
18
#60000
b110 5
b1000 3
0#
0/
#62500
1%
08
#65000
1#
1/
#67500
0%
18
#70000
b111 5
b1010 3
0#
0/
#72500
1%
08
#75000
1#
1/
#77500
0%
18
#80000
b1000 5
b1100 3
0#
0/
#82500
1%
08
#85000
1#
1/
#87500
0%
18
#90000
b1001 5
b1110 3
0#
0/
#92500
1%
08
#95000
1#
1/
#97500
0%
18
#100000
b1010 5
b10000 3
0#
0/
#102500
1%
08
#105000
1#
1/
#107500
0%
18
#110000
b1011 5
b10010 3
0#
0/
#112500
1%
08
#115000
1#
1/
#117500
0%
18
#120000
b1100 5
b10100 3
17
0#
0/
#122500
b0xxxxxxxxxxxxxxx0xxxxxxxxxxxxxxxxxxxxxxxxxxxxxxx0xxxxxxxxxxxxxxx &
1%
08
#125000
1#
1/
#127500
0%
18
#130000
b1101 5
b10110 3
07
0#
0/
#132500
1%
08
#135000
1#
1/
#137500
0%
18
#140000
b1110 5
b11000 3
17
0#
0/
#142500
b0xxxxxxxxxxxxxxx0xxxxxxxxxxxxxxx0xxxxxxxxxxxxxxx0xxxxxxxxxxxxxxx &
1%
08
#145000
1#
1/
#147500
0%
18
#150000
b1111 5
b11010 3
07
0#
0/
#152500
1%
08
#155000
1#
1/
#157500
0%
18
#160000
b10000 5
b11100 3
0#
0/
#162500
1%
08
#165000
1#
1/
#167500
0%
18
#170000
b10001 5
b11110 3
0#
0/
#172500
1%
08
#175000
1#
1/
#177500
0%
18
#180000
b10010 5
b100000 3
0#
0/
#182500
1%
08
#185000
1#
1/
#187500
0%
18
#190000
b10011 5
b100010 3
0#
0/
#192500
1%
08
#195000
1#
1/
#197500
0%
18
#200000
b10100 5
b100100 3
17
0#
0/
#202500
b0xxxxxxx0xxxxxxx0xxxxxxxxxxxxxxx0xxxxxxxxxxxxxxx0xxxxxxxxxxxxxxx &
1%
08
#205000
1#
1/
#207500
0%
18
#210000
b10101 5
b100110 3
07
0#
0/
#212500
1%
08
#215000
1#
1/
#217500
0%
18
#220000
b10110 5
b101000 3
0#
0/
#222500
1%
08
#225000
1#
1/
#227500
0%
18
#230000
b10111 5
b101010 3
17
0#
0/
#232500
1%
08
#235000
1#
1/
#237500
0%
18
#240000
b11000 5
b101100 3
0#
0/
#242500
b0xxxxxxx0xxxxxxx0xxxxxxxxxxxxxxx0xxxxxxxxxxxxxxx0xxxxxxx0xxxxxxx &
1%
08
#245000
1#
1/
#247500
0%
18
#250000
b11001 5
b101110 3
07
0#
0/
#252500
1%
08
#255000
1#
1/
#257500
0%
18
#260000
b11010 5
b110000 3
17
0#
0/
#262500
b0xxxxxxx0xxxxxxx0xxxxxxxxxxxxxxx0xxxxxxx0xxxxxxx0xxxxxxx0xxxxxxx &
1%
08
#265000
1#
1/
#267500
0%
18
#270000
b11011 5
b110010 3
07
0#
0/
#272500
1%
08
#275000
1#
1/
#277500
0%
18
#280000
b11100 5
b110100 3
0#
0/
#282500
1%
08
#285000
1#
1/
#287500
0%
18
#290000
b11101 5
b110110 3
0#
0/
#292500
1%
08
#295000
1#
1/
#297500
0%
18
#300000
b11110 5
b111000 3
17
0#
0/
#302500
b0xxxxxxx0xxxxxxx0xxxxxxx0xxxxxxx0xxxxxxx0xxxxxxx0xxxxxxx0xxxxxxx &
1%
08
#305000
1#
1/
#307500
0%
18
#310000
b11111 5
b111010 3
07
0#
0/
#312500
1%
08
#315000
1#
1/
#317500
0%
18
#320000
b100000 5
b111100 3
0#
0/
#322500
1%
08
#325000
1#
1/
#327500
0%
18
#330000
b100001 5
b111110 3
0#
0/
#332500
1%
08
#335000
1#
1/
#337500
0%
18
#340000
b100010 5
b1000001 3
0#
0/
#342500
1%
08
#345000
1#
1/
#347500
0%
18
#350000
b100011 5
b1000110 3
0#
0/
#352500
1%
08
#355000
1#
1/
#357500
0%
18
#360000
b100100 5
b1001010 3
0#
0/
#362500
1%
08
#365000
1#
1/
#367500
0%
18
#370000
b100101 5
b1001110 3
0#
0/
#372500
1%
08
#375000
1#
1/
#377500
0%
18
#380000
b100110 5
b10000001 3
0#
0/
#382500
1%
08
#385000
1#
1/
#387500
0%
18
#390000
b100111 5
b10000110 3
0#
0/
#392500
1%
08
#395000
1#
1/
#397500
0%
18
#400000
b101000 5
b10001010 3
0#
0/
#402500
1%
08
#405000
1#
1/
#407500
0%
18
#410000
b101001 5
b10001110 3
0#
0/
#412500
1%
08
#415000
1#
1/
#417500
0%
18
#420000
b101010 5
b100000001 3
0#
0/
#422500
1%
08
#425000
1#
1/
#427500
0%
18
#430000
b101011 5
b100000110 3
0#
0/
#432500
1%
08
#435000
1#
1/
#437500
0%
18
#440000
b101100 5
b100001010 3
0#
0/
#442500
1%
08
#445000
1#
1/
#447500
0%
18
#450000
b101101 5
b100001110 3
0#
0/
#452500
1%
08
#455000
1#
1/
#457500
0%
18
#460000
b101110 5
b100011100 3
0#
0/
#462500
1%
08
#465000
1#
1/
#467500
0%
18
#470000
b101111 5
b100100000 3
0#
0/
#472500
1%
08
#475000
1#
1/
#477500
0%
18
#480000
b110000 5
b100100010 3
0#
0/
#482500
1%
08
#485000
1#
1/
#487500
0%
18
#490000
b110001 5
b100101010 3
0#
0/
#492500
1%
08
#495000
1#
1/
#497500
0%
18
#500000
b110010 5
b100101110 3
0#
0/
#502500
1%
08
#505000
1#
1/
#507500
0%
18
#510000
b110011 5
b110000001 3
0#
0/
#512500
1%
08
#515000
1#
1/
#517500
0%
18
#520000
b110100 5
b110000110 3
0#
0/
#522500
1%
08
#525000
1#
1/
#527500
0%
18
#530000
b110101 5
b110001010 3
0#
0/
#532500
1%
08
#535000
1#
1/
#537500
0%
18
#540000
b110110 5
b110001110 3
0#
0/
#542500
1%
08
#545000
1#
1/
#547500
0%
18
#550000
b110111 5
b1000000000 3
0#
0/
#552500
1%
08
#555000
1#
1/
#557500
0%
18
#560000
b111000 5
b1000000001 3
0#
0/
#562500
1%
08
#565000
1#
1/
#567500
0%
18
#570000
b111001 5
b1000000110 3
0#
0/
#572500
1%
08
#575000
1#
1/
#577500
0%
18
#580000
b111010 5
b1000001000 3
0#
0/
#582500
1%
08
#585000
1#
1/
#587500
0%
18
#590000
b111011 5
b1000001010 3
0#
0/
#592500
1%
08
#595000
1#
1/
#597500
0%
18
#600000
b111100 5
b1000001100 3
0#
0/
#602500
1%
08
#605000
1#
1/
#607500
0%
18
#610000
b111101 5
b1000001110 3
0#
0/
#612500
1%
08
#615000
1#
1/
#617500
0%
18
#620000
b111110 5
b1000010000 3
0#
0/
#622500
1%
08
#625000
1#
1/
#627500
0%
18
#630000
b111111 5
b1000010110 3
0#
0/
#632500
1%
08
#635000
1#
1/
#637500
0%
18
#640000
b1000000 5
b1000011100 3
0#
0/
#642500
1%
08
#645000
1#
1/
#647500
0%
18
#650000
b1000001 5
b1000011110 3
0#
0/
#652500
1%
08
#655000
1#
1/
#657500
0%
18
#660000
b1000010 5
b1000100000 3
0#
0/
#662500
1%
08
#665000
1#
1/
#667500
0%
18
#670000
b1000011 5
b1000100010 3
0#
0/
#672500
1%
08
#675000
1#
1/
#677500
0%
18
#680000
b1000100 5
b1000100110 3
0#
0/
#682500
1%
08
#685000
1#
1/
#687500
0%
18
#690000
b1000101 5
b1000101000 3
0#
0/
#692500
1%
08
#695000
1#
1/
#697500
0%
18
#700000
b1000110 5
b1000101010 3
0#
0/
#702500
1%
08
#705000
1#
1/
#707500
0%
18
#710000
b1000111 5
b1000101110 3
0#
0/
#712500
1%
08
#715000
1#
1/
#717500
0%
18
#720000
b1001000 5
b1000110100 3
0#
0/
#722500
1%
08
#725000
1#
1/
#727500
0%
18
#730000
b1001001 5
b1000110110 3
17
0#
0/
#732500
1%
08
#735000
1#
1/
#737500
0%
18
#740000
b1001010 5
b1000111010 3
07
0#
0/
#742500
1%
08
#745000
1#
1/
#747500
0%
18
#750000
b1001011 5
b1000111100 3
0#
0/
#752500
1%
08
#755000
1#
1/
#757500
0%
18
#760000
b1001100 5
b1001000001 3
0#
0/
#762500
1%
08
#765000
1#
1/
#767500
0%
18
#770000
b1001101 5
b1001000110 3
0#
0/
#772500
1%
08
#775000
1#
1/
#777500
0%
18
#780000
b1001110 5
b1001001010 3
0#
0/
#782500
1%
08
#785000
1#
1/
#787500
0%
18
#790000
b1001111 5
b1001001110 3
0#
0/
#792500
1%
08
#795000
1#
1/
#797500
0%
18
#800000
b1010000 5
b1010000001 3
0#
0/
#802500
1%
08
#805000
1#
1/
#807500
0%
18
#810000
b1010001 5
b1010000110 3
0#
0/
#812500
1%
08
#815000
1#
1/
#817500
0%
18
#820000
b1010010 5
b1010001010 3
0#
0/
#822500
1%
08
#825000
1#
1/
#827500
0%
18
#830000
b1010011 5
b1010001110 3
0#
0/
#832500
1%
08
#835000
1#
1/
#837500
0%
18
#840000
b1010100 5
b1100000001 3
0#
0/
#842500
1%
08
#845000
1#
1/
#847500
0%
18
#850000
b1010101 5
b1100000110 3
0#
0/
#852500
1%
08
#855000
1#
1/
#857500
0%
18
#860000
b1010110 5
b1100001010 3
0#
0/
#862500
1%
08
#865000
1#
1/
#867500
0%
18
#870000
b1010111 5
b1100001110 3
0#
0/
#872500
1%
08
#875000
1#
1/
#877500
0%
18
#880000
b1011000 5
b1100011100 3
0#
0/
#882500
1%
08
#885000
1#
1/
#887500
0%
18
#890000
b1011001 5
b1100100000 3
0#
0/
#892500
1%
08
#895000
1#
1/
#897500
0%
18
#900000
b1011010 5
b1100101010 3
0#
0/
#902500
1%
08
#905000
1#
1/
#907500
0%
18
#910000
b1011011 5
b1100101110 3
0#
0/
#912500
1%
08
#915000
1#
1/
#917500
0%
18
#920000
b1011100 5
b1110000001 3
0#
0/
#922500
1%
08
#925000
1#
1/
#927500
0%
18
#930000
b1011101 5
b1110000110 3
0#
0/
#932500
1%
08
#935000
1#
1/
#937500
0%
18
#940000
b1011110 5
b1110001010 3
0#
0/
#942500
1%
08
#945000
1#
1/
#947500
0%
18
#950000
b1011111 5
b1110001110 3
0#
0/
#952500
1%
08
#955000
1#
1/
#957500
0%
18
#960000
b1100000 5
b10000000000 3
0#
0/
#962500
1%
08
#965000
1#
1/
#967500
0%
18
#970000
b1100001 5
b10000000001 3
0#
0/
#972500
1%
08
#975000
1#
1/
#977500
0%
18
#980000
b1100010 5
b10000000110 3
0#
0/
#982500
1%
08
#985000
1#
1/
#987500
0%
18
#990000
b1100011 5
b10000001000 3
0#
0/
#992500
1%
08
#995000
1#
1/
#997500
0%
18
#1000000
b1100100 5
b10000001010 3
0#
0/
#1002500
1%
08
#1005000
1#
1/
#1007500
0%
18
#1010000
b1100101 5
b10000001100 3
0#
0/
#1012500
1%
08
#1015000
1#
1/
#1017500
0%
18
#1020000
b1100110 5
b10000001110 3
0#
0/
#1022500
1%
08
#1025000
1#
1/
#1027500
0%
18
#1030000
b1100111 5
b10000010000 3
0#
0/
#1032500
1%
08
#1035000
1#
1/
#1037500
0%
18
#1040000
b1101000 5
b10000010010 3
0#
0/
#1042500
1%
08
#1045000
1#
1/
#1047500
0%
18
#1050000
b1101001 5
b10000010110 3
0#
0/
#1052500
1%
08
#1055000
1#
1/
#1057500
0%
18
#1060000
b1101010 5
b10000011010 3
0#
0/
#1062500
1%
08
#1065000
1#
1/
#1067500
0%
18
#1070000
b1101011 5
b10000011100 3
0#
0/
#1072500
1%
08
#1075000
1#
1/
#1077500
0%
18
#1080000
b1101100 5
b10000011110 3
0#
0/
#1082500
1%
08
#1085000
1#
1/
#1087500
0%
18
#1090000
b1101101 5
b10000100000 3
0#
0/
#1092500
1%
08
#1095000
1#
1/
#1097500
0%
18
#1100000
b1101110 5
b10000100010 3
0#
0/
#1102500
1%
08
#1105000
1#
1/
#1107500
0%
18
#1110000
b1101111 5
b10000100110 3
0#
0/
#1112500
1%
08
#1115000
1#
1/
#1117500
0%
18
#1120000
b1110000 5
b10000101000 3
0#
0/
#1122500
1%
08
#1125000
1#
1/
#1127500
0%
18
#1130000
b1110001 5
b10000101010 3
0#
0/
#1132500
1%
08
#1135000
1#
1/
#1137500
0%
18
#1140000
b1110010 5
b10000101110 3
0#
0/
#1142500
1%
08
#1145000
1#
1/
#1147500
0%
18
#1150000
b1110011 5
b10000110010 3
0#
0/
#1152500
1%
08
#1155000
1#
1/
#1157500
0%
18
#1160000
b1110100 5
b10000110100 3
0#
0/
#1162500
1%
08
#1165000
1#
1/
#1167500
0%
18
#1170000
b1110101 5
b10000110110 3
0#
0/
#1172500
1%
08
#1175000
1#
1/
#1177500
0%
18
#1180000
b1110110 5
b10000111010 3
0#
0/
#1182500
1%
08
#1185000
1#
1/
#1187500
0%
18
#1190000
b1110111 5
b10000111100 3
0#
0/
#1192500
1%
08
#1195000
1#
1/
#1197500
0%
18
#1200000
b1111000 5
b10000111110 3
0#
0/
#1202500
1%
08
#1205000
1#
1/
#1207500
0%
18
#1210000
b1111001 5
b10001000001 3
0#
0/
#1212500
1%
08
#1215000
1#
1/
#1217500
0%
18
#1220000
b1111010 5
b10001000110 3
0#
0/
#1222500
1%
08
#1225000
1#
1/
#1227500
0%
18
#1230000
b1111011 5
b10001001010 3
0#
0/
#1232500
1%
08
#1235000
1#
1/
#1237500
0%
18
#1240000
b1111100 5
b10001001110 3
0#
0/
#1242500
1%
08
#1245000
1#
1/
#1247500
0%
18
#1250000
b1111101 5
b10010000001 3
0#
0/
#1252500
1%
08
#1255000
1#
1/
#1257500
0%
18
#1260000
b1111110 5
b10010000110 3
0#
0/
#1262500
1%
08
#1265000
1#
1/
#1267500
0%
18
#1270000
b1111111 5
b10010001010 3
0#
0/
#1272500
1%
08
#1275000
1#
1/
#1277500
0%
18
#1280000
b10000000 5
b10010001110 3
0#
0/
#1282500
1%
08
#1285000
1#
1/
#1287500
0%
18
#1290000
b10000001 5
b10100000001 3
0#
0/
#1292500
1%
08
#1295000
1#
1/
#1297500
0%
18
#1300000
b10000010 5
b10100000110 3
0#
0/
#1302500
1%
08
#1305000
1#
1/
#1307500
0%
18
#1310000
b10000011 5
b10100001010 3
0#
0/
#1312500
1%
08
#1315000
1#
1/
#1317500
0%
18
#1320000
b10000100 5
b10100001110 3
0#
0/
#1322500
1%
08
#1325000
1#
1/
#1327500
0%
18
#1330000
b10000101 5
b10100011100 3
0#
0/
#1332500
1%
08
#1335000
1#
1/
#1337500
0%
18
#1340000
b10000110 5
b10100100000 3
0#
0/
#1342500
1%
08
#1345000
1#
1/
#1347500
0%
18
#1350000
b10000111 5
b10100101010 3
0#
0/
#1352500
1%
08
#1355000
1#
1/
#1357500
0%
18
#1360000
b10001000 5
b10100101110 3
0#
0/
#1362500
1%
08
#1365000
1#
1/
#1367500
0%
18
#1370000
b10001001 5
b10110000001 3
0#
0/
#1372500
1%
08
#1375000
1#
1/
#1377500
0%
18
#1380000
b10001010 5
b10110000110 3
0#
0/
#1382500
1%
08
#1385000
1#
1/
#1387500
0%
18
#1390000
b10001011 5
b10110001010 3
0#
0/
#1392500
1%
08
#1395000
1#
1/
#1397500
0%
18
#1400000
b10001100 5
b10110001110 3
0#
0/
#1402500
1%
08
#1405000
1#
1/
#1407500
0%
18
#1410000
b10001101 5
b11000000001 3
0#
0/
#1412500
1%
08
#1415000
1#
1/
#1417500
0%
18
#1420000
b10001110 5
b11000000110 3
0#
0/
#1422500
1%
08
#1425000
1#
1/
#1427500
0%
18
#1430000
b10001111 5
b11000001010 3
0#
0/
#1432500
1%
08
#1435000
1#
1/
#1437500
0%
18
#1440000
b10010000 5
b11000001110 3
17
0#
0/
#1442500
1%
08
#1445000
1#
1/
#1447500
0%
18
#1450000
b10010001 5
b11000011100 3
07
0#
0/
#1452500
1%
08
#1455000
1#
1/
#1457500
0%
18
#1460000
b10010010 5
b11000100000 3
0#
0/
#1462500
1%
08
#1465000
1#
1/
#1467500
0%
18
#1470000
b10010011 5
b11000100010 3
0#
0/
#1472500
1%
08
#1475000
1#
1/
#1477500
0%
18
#1480000
b10010100 5
b11000101010 3
0#
0/
#1482500
1%
08
#1485000
1#
1/
#1487500
0%
18
#1490000
b10010101 5
b11000101110 3
0#
0/
#1492500
1%
08
#1495000
1#
1/
#1497500
0%
18
#1500000
b10010110 5
b11001000001 3
0#
0/
#1502500
1%
08
#1505000
1#
1/
#1507500
0%
18
#1510000
b10010111 5
b11001000110 3
0#
0/
#1512500
1%
08
#1515000
1#
1/
#1517500
0%
18
#1520000
b10011000 5
b11001001010 3
0#
0/
#1522500
1%
08
#1525000
1#
1/
#1527500
0%
18
#1530000
b10011001 5
b11001001110 3
0#
0/
#1532500
1%
08
#1535000
1#
1/
#1537500
0%
18
#1540000
b10011010 5
b11010000001 3
0#
0/
#1542500
1%
08
#1545000
1#
1/
#1547500
0%
18
#1550000
b10011011 5
b11010000110 3
0#
0/
#1552500
1%
08
#1555000
1#
1/
#1557500
0%
18
#1560000
b10011100 5
b11010001010 3
0#
0/
#1562500
1%
08
#1565000
1#
1/
#1567500
0%
18
#1570000
b10011101 5
b11010001110 3
0#
0/
#1572500
1%
08
#1575000
1#
1/
#1577500
0%
18
#1580000
b10011110 5
b11100000001 3
0#
0/
#1582500
1%
08
#1585000
1#
1/
#1587500
0%
18
#1590000
b10011111 5
b11100000110 3
0#
0/
#1592500
1%
08
#1595000
1#
1/
#1597500
0%
18
#1600000
b10100000 5
b11100001010 3
0#
0/
#1602500
1%
08
#1605000
1#
1/
#1607500
0%
18
#1610000
b10100001 5
b11100001110 3
0#
0/
#1612500
1%
08
#1615000
1#
1/
#1617500
0%
18
#1620000
b10100010 5
b11100101010 3
0#
0/
#1622500
1%
08
#1625000
1#
1/
#1627500
0%
18
#1630000
b10100011 5
b11100101110 3
0#
0/
#1632500
1%
08
#1635000
1#
1/
#1637500
0%
18
#1640000
b10100100 5
b11110000001 3
0#
0/
#1642500
1%
08
#1645000
1#
1/
#1647500
0%
18
#1650000
b10100101 5
b11110000110 3
0#
0/
#1652500
1%
08
#1655000
1#
1/
#1657500
0%
18
#1660000
b10100110 5
b11110001010 3
0#
0/
#1662500
1%
08
#1665000
1#
1/
#1667500
0%
18
#1670000
b10100111 5
b11110001110 3
0#
0/
#1672500
1%
08
#1675000
1#
1/
#1677500
0%
18
#1680000
b10101000 5
b100000000000 3
0#
0/
#1682500
1%
08
#1685000
1#
1/
#1687500
0%
18
#1690000
b10101001 5
b100000000001 3
0#
0/
#1692500
1%
08
#1695000
1#
1/
#1697500
0%
18
#1700000
b10101010 5
b100000000110 3
0#
0/
#1702500
1%
08
#1705000
1#
1/
#1707500
0%
18
#1710000
b10101011 5
b100000001000 3
0#
0/
#1712500
1%
08
#1715000
1#
1/
#1717500
0%
18
#1720000
b10101100 5
b100000001010 3
0#
0/
#1722500
1%
08
#1725000
1#
1/
#1727500
0%
18
#1730000
b10101101 5
b100000001100 3
0#
0/
#1732500
1%
08
#1735000
1#
1/
#1737500
0%
18
#1740000
b10101110 5
b100000001110 3
0#
0/
#1742500
1%
08
#1745000
1#
1/
#1747500
0%
18
#1750000
b10101111 5
b100000010000 3
0#
0/
#1752500
1%
08
#1755000
1#
1/
#1757500
0%
18
#1760000
b10110000 5
b100000010010 3
0#
0/
#1762500
1%
08
#1765000
1#
1/
#1767500
0%
18
#1770000
b10110001 5
b100000010110 3
0#
0/
#1772500
1%
08
#1775000
1#
1/
#1777500
0%
18
#1780000
b10110010 5
b100000011010 3
0#
0/
#1782500
1%
08
#1785000
1#
1/
#1787500
0%
18
#1790000
b10110011 5
b100000011100 3
0#
0/
#1792500
1%
08
#1795000
1#
1/
#1797500
0%
18
#1800000
b10110100 5
b100000011110 3
0#
0/
#1802500
1%
08
#1805000
1#
1/
#1807500
0%
18
#1810000
b10110101 5
b100000100000 3
0#
0/
#1812500
1%
08
#1815000
1#
1/
#1817500
0%
18
#1820000
b10110110 5
b100000100010 3
0#
0/
#1822500
1%
08
#1825000
1#
1/
#1827500
0%
18
#1830000
b10110111 5
b100000100110 3
0#
0/
#1832500
1%
08
#1835000
1#
1/
#1837500
0%
18
#1840000
b10111000 5
b100000101000 3
0#
0/
#1842500
1%
08
#1845000
1#
1/
#1847500
0%
18
#1850000
b10111001 5
b100000101010 3
0#
0/
#1852500
1%
08
#1855000
1#
1/
#1857500
0%
18
#1860000
b10111010 5
b100000101110 3
0#
0/
#1862500
1%
08
#1865000
1#
1/
#1867500
0%
18
#1870000
b10111011 5
b100000110010 3
0#
0/
#1872500
1%
08
#1875000
1#
1/
#1877500
0%
18
#1880000
b10111100 5
b100000110100 3
0#
0/
#1882500
1%
08
#1885000
1#
1/
#1887500
0%
18
#1890000
b10111101 5
b100000110110 3
0#
0/
#1892500
1%
08
#1895000
1#
1/
#1897500
0%
18
#1900000
b10111110 5
b100000111010 3
0#
0/
#1902500
1%
08
#1905000
1#
1/
#1907500
0%
18
#1910000
b10111111 5
b100000111100 3
0#
0/
#1912500
1%
08
#1915000
1#
1/
#1917500
0%
18
#1920000
b11000000 5
b100000111110 3
0#
0/
#1922500
1%
08
#1925000
1#
1/
#1927500
0%
18
#1930000
b11000001 5
b100100011100 3
0#
0/
#1932500
1%
08
#1935000
1#
1/
#1937500
0%
18
#1940000
b11000010 5
b100100100000 3
0#
0/
#1942500
1%
08
#1945000
1#
1/
#1947500
0%
18
#1950000
b11000011 5
b100100100010 3
0#
0/
#1952500
1%
08
#1955000
1#
1/
#1957500
0%
18
#1960000
b11000100 5
b100100101010 3
0#
0/
#1962500
1%
08
#1965000
1#
1/
#1967500
0%
18
#1970000
b11000101 5
b100100101110 3
0#
0/
#1972500
1%
08
#1975000
1#
1/
#1977500
0%
18
#1980000
b11000110 5
b101000000001 3
0#
0/
#1982500
1%
08
#1985000
1#
1/
#1987500
0%
18
#1990000
b11000111 5
b101000000110 3
0#
0/
#1992500
1%
08
#1995000
1#
1/
#1997500
0%
18
#2000000
b11001000 5
b101000001010 3
0#
0/
#2002500
1%
08
#2005000
1#
1/
#2007500
0%
18
#2010000
b11001001 5
b101000001110 3
0#
0/
#2012500
1%
08
#2015000
1#
1/
#2017500
0%
18
#2020000
b11001010 5
b101000010110 3
0#
0/
#2022500
1%
08
#2025000
1#
1/
#2027500
0%
18
#2030000
b11001011 5
b101000011100 3
0#
0/
#2032500
1%
08
#2035000
1#
1/
#2037500
0%
18
#2040000
b11001100 5
b101000011110 3
0#
0/
#2042500
1%
08
#2045000
1#
1/
#2047500
0%
18
#2050000
b11001101 5
b101000100000 3
0#
0/
#2052500
1%
08
#2055000
1#
1/
#2057500
0%
18
#2060000
b11001110 5
b101000100010 3
0#
0/
#2062500
1%
08
#2065000
1#
1/
#2067500
0%
18
#2070000
b11001111 5
b101000101010 3
0#
0/
#2072500
1%
08
#2075000
1#
1/
#2077500
0%
18
#2080000
b11010000 5
b101000101110 3
0#
0/
#2082500
1%
08
#2085000
1#
1/
#2087500
0%
18
#2090000
b11010001 5
b101000110110 3
0#
0/
#2092500
1%
08
#2095000
1#
1/
#2097500
0%
18
#2100000
b11010010 5
b101000111010 3
0#
0/
#2102500
1%
08
#2105000
1#
1/
#2107500
0%
18
#2110000
b11010011 5
b101100011100 3
0#
0/
#2112500
1%
08
#2115000
1#
1/
#2117500
0%
18
#2120000
b11010100 5
b101100101010 3
0#
0/
#2122500
1%
08
#2125000
1#
1/
#2127500
0%
18
#2130000
b11010101 5
b101100101110 3
0#
0/
#2132500
1%
08
#2135000
1#
1/
#2137500
0%
18
#2140000
b11010110 5
b110000000000 3
0#
0/
#2142500
1%
08
#2145000
1#
1/
#2147500
0%
18
#2150000
b11010111 5
b110000000001 3
0#
0/
#2152500
1%
08
#2155000
1#
1/
#2157500
0%
18
#2160000
b11011000 5
b110000000110 3
0#
0/
#2162500
1%
08
#2165000
1#
1/
#2167500
0%
18
#2170000
b11011001 5
b110000001000 3
0#
0/
#2172500
1%
08
#2175000
1#
1/
#2177500
0%
18
#2180000
b11011010 5
b110000001010 3
0#
0/
#2182500
1%
08
#2185000
1#
1/
#2187500
0%
18
#2190000
b11011011 5
b110000001100 3
0#
0/
#2192500
1%
08
#2195000
1#
1/
#2197500
0%
18
#2200000
b11011100 5
b110000001110 3
0#
0/
#2202500
1%
08
#2205000
1#
1/
#2207500
0%
18
#2210000
b11011101 5
b110000010000 3
0#
0/
#2212500
1%
08
#2215000
1#
1/
#2217500
0%
18
#2220000
b11011110 5
b110000010110 3
0#
0/
#2222500
1%
08
#2225000
1#
1/
#2227500
0%
18
#2230000
b11011111 5
b110000011100 3
0#
0/
#2232500
1%
08
#2235000
1#
1/
#2237500
0%
18
#2240000
b11100000 5
b110000011110 3
0#
0/
#2242500
1%
08
#2245000
1#
1/
#2247500
0%
18
#2250000
b11100001 5
b110000100000 3
0#
0/
#2252500
1%
08
#2255000
1#
1/
#2257500
0%
18
#2260000
b11100010 5
b110000100010 3
0#
0/
#2262500
1%
08
#2265000
1#
1/
#2267500
0%
18
#2270000
b11100011 5
b110000100110 3
0#
0/
#2272500
1%
08
#2275000
1#
1/
#2277500
0%
18
#2280000
b11100100 5
b110000101000 3
0#
0/
#2282500
1%
08
#2285000
1#
1/
#2287500
0%
18
#2290000
b11100101 5
b110000101010 3
0#
0/
#2292500
1%
08
#2295000
1#
1/
#2297500
0%
18
#2300000
b11100110 5
b110000101110 3
0#
0/
#2302500
1%
08
#2305000
1#
1/
#2307500
0%
18
#2310000
b11100111 5
b110000110100 3
0#
0/
#2312500
1%
08
#2315000
1#
1/
#2317500
0%
18
#2320000
b11101000 5
b110000110110 3
0#
0/
#2322500
1%
08
#2325000
1#
1/
#2327500
0%
18
#2330000
b11101001 5
b110000111010 3
0#
0/
#2332500
1%
08
#2335000
1#
1/
#2337500
0%
18
#2340000
b11101010 5
b110000111100 3
0#
0/
#2342500
1%
08
#2345000
1#
1/
#2347500
0%
18
#2350000
b11101011 5
b110100011100 3
0#
0/
#2352500
1%
08
#2355000
1#
1/
#2357500
0%
18
#2360000
b11101100 5
b110100100000 3
0#
0/
#2362500
1%
08
#2365000
1#
1/
#2367500
0%
18
#2370000
b11101101 5
b110100101010 3
0#
0/
#2372500
1%
08
#2375000
1#
1/
#2377500
0%
18
#2380000
b11101110 5
b110100101110 3
0#
0/
#2382500
1%
08
#2385000
1#
1/
#2387500
0%
18
#2390000
b11101111 5
b111000000001 3
0#
0/
#2392500
1%
08
#2395000
1#
1/
#2397500
0%
18
#2400000
b11110000 5
b111000000110 3
0#
0/
#2402500
1%
08
#2405000
1#
1/
#2407500
0%
18
#2410000
b11110001 5
b111000001010 3
0#
0/
#2412500
1%
08
#2415000
1#
1/
#2417500
0%
18
#2420000
b11110010 5
b111000001110 3
0#
0/
#2422500
1%
08
#2425000
1#
1/
#2427500
0%
18
#2430000
b11110011 5
b111000011100 3
0#
0/
#2432500
1%
08
#2435000
1#
1/
#2437500
0%
18
#2440000
b11110100 5
b111000100000 3
0#
0/
#2442500
1%
08
#2445000
1#
1/
#2447500
0%
18
#2450000
b11110101 5
b111000100010 3
0#
0/
#2452500
1%
08
#2455000
1#
1/
#2457500
0%
18
#2460000
b11110110 5
b111000101010 3
0#
0/
#2462500
1%
08
#2465000
1#
1/
#2467500
0%
18
#2470000
b11110111 5
b111000101110 3
0#
0/
#2472500
1%
08
#2475000
1#
1/
#2477500
0%
18
#2480000
b11111000 5
b1000000000000 3
0#
0/
#2482500
1%
08
#2485000
1#
1/
#2487500
0%
18
#2490000
b11111001 5
b1000000000001 3
0#
0/
#2492500
1%
08
#2495000
1#
1/
#2497500
0%
18
#2500000
b11111010 5
b1000000000010 3
17
0#
0/
#2502500
b0xxxxxxx0xxxxxxx0xxxxxxx0xxxxxxx0xxxxxxx0xxxxxxx0xxx0xxx0xxxxxxx &
1%
08
#2505000
1#
1/
#2507500
0%
18
