Fabric/configuration_chain/latest/k4_N4_tileable_40nm/or2/MIN_ROUTE_CHAN_WIDTH/or2_formal.vcd
$date
	Mon Oct  7 19:17:30 2024
$end
$version
	Icarus Verilog
$end
$timescale
	1ps
$end
$scope module or2_autocheck_top_tb $end
$var wire 1 ! __config_all_done__ $end
$var wire 1 " __op_clock__ $end
$var wire 1 # __prog_clock__ $end
$var wire 1 $ clk $end
$var wire 32 % gfpga_pad_GPIO_PAD [0:31] $end
$var wire 1 & prog_clk $end
$var wire 1 ' reset $end
$var wire 1 ( set $end
$var wire 1 ) ccff_tail $end
$var wire 1 * c_fpga $end
$var wire 1 + c_benchmark $end
$var reg 1 , __config_done__ $end
$var reg 1 - __greset__ $end
$var reg 1 . __gset__ $end
$var reg 1 / __op_clock___reg__ $end
$var reg 1 0 __prog_clock___reg__ $end
$var reg 1 1 __prog_reset__ $end
$var reg 1 2 __prog_set_ $end
$var reg 1 3 a_shared_input $end
$var reg 1 4 b_shared_input $end
$var reg 10 5 bit_index [9:0] $end
$var reg 1 6 c_flag $end
$var reg 1 7 ccff_head $end
$var reg 10 8 ibit [9:0] $end
$var reg 1 9 sim_start $end
$var reg 1 : skip_bits $end
$var integer 32 ; nb_error [31:0] $end
$upscope $end
$enddefinitions $end
#0
$dumpvars
b1 ;
0:
19
b110110001 8
07
06
b0 5
04
13
12
11
00
0/
0.
1-
0,
1+
x*
x)
0(
1'
0&
bx %
0$
0#
0"
0!
$end
#5000
10
#10000
b1 5
17
00
02
01
#15000
1&
1#
10
#20000
b10 5
0&
0#
00
#25000
1&
1#
10
#30000
b11 5
0&
0#
00
#35000
1&
1#
10
#40000
b100 5
07
0&
0#
00
#45000
1&
1#
10
#50000
b101 5
0&
0#
00
#55000
1&
1#
10
#60000
b110 5
0&
0#
00
#65000
1&
1#
10
#70000
b111 5
0&
0#
00
#75000
1&
1#
10
#80000
b1000 5
0&
0#
00
#85000
1&
1#
10
#90000
b1001 5
0&
0#
00
#95000
1&
1#
10
#100000
b1010 5
0&
0#
00
#105000
1&
1#
10
#110000
b1011 5
0&
0#
00
#115000
1&
1#
10
#120000
b1100 5
0&
0#
00
#125000
1&
1#
10
#130000
b1101 5
17
0&
0#
00
#135000
1&
1#
10
#140000
b1110 5
0&
0#
00
#145000
1&
1#
10
#150000
b1111 5
07
0&
0#
00
#155000
1&
1#
10
#160000
b10000 5
0&
0#
00
#165000
1&
1#
10
#170000
b10001 5
0&
0#
00
#175000
1&
1#
10
#180000
b10010 5
0&
0#
00
#185000
1&
1#
10
#190000
b10011 5
0&
0#
00
#195000
1&
1#
10
#200000
b10100 5
0&
0#
00
#205000
1&
1#
10
#210000
b10101 5
0&
0#
00
#215000
1&
1#
10
#220000
b10110 5
0&
0#
00
#225000
1&
1#
10
#230000
b10111 5
0&
0#
00
#235000
1&
1#
10
#240000
b11000 5
0&
0#
00
#245000
1&
1#
10
#250000
b11001 5
0&
0#
00
#255000
1&
1#
10
#260000
b11010 5
0&
0#
00
#265000
1&
1#
10
#270000
b11011 5
0&
0#
00
#275000
1&
1#
10
#280000
b11100 5
0&
0#
00
#285000
1&
1#
10
#290000
b11101 5
0&
0#
00
#295000
1&
1#
10
#300000
b11110 5
0&
0#
00
#305000
1&
1#
10
#310000
b11111 5
0&
0#
00
#315000
1&
1#
10
#320000
b100000 5
0&
0#
00
#325000
1&
1#
10
#330000
b100001 5
0&
0#
00
#335000
1&
1#
10
#340000
b100010 5
0&
0#
00
#345000
1&
1#
10
#350000
b100011 5
0&
0#
00
#355000
1&
1#
10
#360000
b100100 5
0&
0#
00
#365000
1&
1#
10
#370000
b100101 5
0&
0#
00
#375000
1&
1#
10
#380000
b100110 5
0&
0#
00
#385000
1&
1#
10
#390000
b100111 5
0&
0#
00
#395000
1&
1#
10
#400000
b101000 5
0&
0#
00
#405000
1&
1#
10
#410000
b101001 5
0&
0#
00
#415000
1&
1#
10
#420000
b101010 5
0&
0#
00
#425000
1&
1#
10
#430000
b101011 5
0&
0#
00
#435000
1&
1#
10
#440000
b101100 5
0&
0#
00
#445000
1&
1#
10
#450000
b101101 5
0&
0#
00
#455000
1&
1#
10
#460000
b101110 5
0&
0#
00
#465000
1&
1#
10
#470000
b101111 5
0&
0#
00
#475000
1&
1#
10
#480000
b110000 5
0&
0#
00
#485000
1&
1#
10
#490000
b110001 5
0&
0#
00
#495000
1&
1#
10
#500000
b110010 5
0&
0#
00
#505000
1&
1#
10
#510000
b110011 5
0&
0#
00
#515000
1&
1#
10
#520000
b110100 5
0&
0#
00
#525000
1&
1#
10
#530000
b110101 5
0&
0#
00
#535000
1&
1#
10
#540000
b110110 5
0&
0#
00
#545000
1&
1#
10
#550000
b110111 5
0&
0#
00
#555000
1&
1#
10
#560000
b111000 5
0&
0#
00
#565000
1&
1#
10
#570000
b111001 5
0&
0#
00
#575000
1&
1#
10
#580000
b111010 5
0&
0#
00
#585000
1&
1#
10
#590000
b111011 5
0&
0#
00
#595000
1&
1#
10
#600000
b111100 5
0&
0#
00
#605000
1&
1#
10
#610000
b111101 5
0&
0#
00
#615000
1&
1#
10
#620000
b111110 5
0&
0#
00
#625000
1&
1#
10
#630000
b111111 5
0&
0#
00
#635000
1&
1#
10
#640000
b1000000 5
0&
0#
00
#645000
1&
1#
10
#650000
b1000001 5
17
0&
0#
00
#655000
1&
1#
10
#660000
b1000010 5
07
0&
0#
00
#665000
1&
1#
10
#670000
b1000011 5
0&
0#
00
#675000
1&
1#
10
#680000
b1000100 5
17
0&
0#
00
#685000
1&
1#
10
#690000
b1000101 5
07
0&
0#
00
#695000
1&
1#
10
#700000
b1000110 5
17
0&
0#
00
#705000
1&
1#
10
#710000
b1000111 5
07
0&
0#
00
#715000
1&
1#
10
#720000
b1001000 5
17
0&
0#
00
#725000
1&
1#
10
#730000
b1001001 5
07
0&
0#
00
#735000
1&
1#
10
#740000
b1001010 5
17
0&
0#
00
#745000
1&
1#
10
#750000
b1001011 5
0&
0#
00
#755000
1&
1#
10
#760000
b1001100 5
0&
0#
00
#765000
1&
1#
10
#770000
b1001101 5
0&
0#
00
#775000
1&
1#
10
#780000
b1001110 5
0&
0#
00
#785000
1&
1#
10
#790000
b1001111 5
0&
0#
00
#795000
1&
1#
10
#800000
b1010000 5
0&
0#
00
#805000
1&
1#
10
#810000
b1010001 5
0&
0#
00
#815000
1&
1#
10
#820000
b1010010 5
0&
0#
00
#825000
1&
1#
10
#830000
b1010011 5
07
0&
0#
00
#835000
1&
1#
10
#840000
b1010100 5
0&
0#
00
#845000
1&
1#
10
#850000
b1010101 5
0&
0#
00
#855000
1&
1#
10
#860000
b1010110 5
0&
0#
00
#865000
1&
1#
10
#870000
b1010111 5
0&
0#
00
#875000
1&
1#
10
#880000
b1011000 5
0&
0#
00
#885000
1&
1#
10
#890000
b1011001 5
0&
0#
00
#895000
1&
1#
10
#900000
b1011010 5
0&
0#
00
#905000
1&
1#
10
#910000
b1011011 5
0&
0#
00
#915000
1&
1#
10
#920000
b1011100 5
0&
0#
00
#925000
1&
1#
10
#930000
b1011101 5
0&
0#
00
#935000
1&
1#
10
#940000
b1011110 5
0&
0#
00
#945000
1&
1#
10
#950000
b1011111 5
0&
0#
00
#955000
1&
1#
10
#960000
b1100000 5
0&
0#
00
#965000
1&
1#
10
#970000
b1100001 5
0&
0#
00
#975000
1&
1#
10
#980000
b1100010 5
0&
0#
00
#985000
1&
1#
10
#990000
b1100011 5
0&
0#
00
#995000
1&
1#
10
#1000000
b1100100 5
0&
0#
00
#1005000
1&
1#
10
#1010000
b1100101 5
0&
0#
00
#1015000
1&
1#
10
#1020000
b1100110 5
0&
0#
00
#1025000
bx0xxxxxxxxxxxxxxx %
1&
1#
10
#1030000
b1100111 5
0&
0#
00
#1035000
bx00xxxxxxxxxxxxxx %
1&
1#
10
#1040000
b1101000 5
0&
0#
00
#1045000
bx000xxxxxxxxxxxxx %
1&
1#
10
#1050000
b1101001 5
0&
0#
00
#1055000
bx0000xxxxxxxxxxxx %
1&
1#
10
#1060000
b1101010 5
0&
0#
00
#1065000
z*
bx0000zxxxxxxxxxxx %
1&
1#
10
#1070000
b1101011 5
0&
0#
00
#1075000
bx0000z0xxxxxxxxxx %
1&
1#
10
#1080000
b1101100 5
0&
0#
00
#1085000
bx0000z00xxxxxxxxx %
1&
1#
10
#1090000
b1101101 5
0&
0#
00
#1095000
0*
bx00000000xxxxxxxx %
1&
1#
10
#1100000
b1101110 5
0&
0#
00
#1105000
bx0xxxxxxx00000000xxxxxxxx %
1&
1#
10
#1110000
b1101111 5
0&
0#
00
#1115000
bx00xxxxxx00000000xxxxxxxx %
1&
1#
10
#1120000
b1110000 5
0&
0#
00
#1125000
bx000xxxxx00000000xxxxxxxx %
1&
1#
10
#1130000
b1110001 5
0&
0#
00
#1135000
bx000xxxx00000000xxxxxxxx %
1&
1#
10
#1140000
b1110010 5
0&
0#
00
#1145000
bx000xxx00000000xxxxxxxx %
1&
1#
10
#1150000
b1110011 5
0&
0#
00
#1155000
bx000xx00000000xxxxxxxx %
1&
1#
10
#1160000
b1110100 5
0&
0#
00
#1165000
bx000x00000000xxxxxxxx %
1&
1#
10
#1170000
b1110101 5
0&
0#
00
#1175000
bx00000000000xxxxxxxx %
1&
1#
10
#1180000
b1110110 5
0&
0#
00
#1185000
z*
b0xxxxxxxxxxxxx000000z000xxxxxxxx %
1&
1#
10
#1190000
b1110111 5
0&
0#
00
#1195000
b0xxxxxxxxxxxxx00000z000xxxxxxxx %
1&
1#
10
#1200000
b1111000 5
0&
0#
00
#1205000
0*
b0xxxxxxxxxxxxx00000000xxxxxxxx %
1&
1#
10
#1210000
b1111001 5
0&
0#
00
#1215000
bx000xxxxxxxxxxxx00000000xxxxxxxx %
1&
1#
10
#1220000
b1111010 5
0&
0#
00
#1225000
bx000xxx0xxxxxxx00000000xxxxxxxx %
1&
1#
10
#1230000
b1111011 5
0&
0#
00
#1235000
bx000xx00xxxxxx00000000xxxxxxxx %
1&
1#
10
#1240000
b1111100 5
0&
0#
00
#1245000
bx000xx00xxxxx00000000xxxxxxxx %
1&
1#
10
#1250000
b1111101 5
0&
0#
00
#1255000
bx000xx00xxxx00000000xxxxxxxx %
1&
1#
10
#1260000
b1111110 5
0&
0#
00
#1265000
bx00xxx00xxx00000000xxxxxxxx %
1&
1#
10
#1270000
b1111111 5
0&
0#
00
#1275000
bx0xxxx00xx00000000xxxxxxxx %
1&
1#
10
#1280000
b10000000 5
0&
0#
00
#1285000
bx00x00000000xxxxxxxx %
1&
1#
10
#1290000
b10000001 5
0&
0#
00
#1295000
bx0000000000xxxxxxxx %
1&
1#
10
#1300000
b10000010 5
0&
0#
00
#1305000
b0xxxxxxxxxxxxxx000000000xxxxxxxx %
1&
1#
10
#1310000
b10000011 5
0&
0#
00
#1315000
b0xxxxxxxxxxxxxx00000000xxxxxxxx %
1&
1#
10
#1320000
b10000100 5
0&
0#
00
#1325000
bx00xxxxxxxxxxxxx00000000xxxxxxxx %
1&
1#
10
#1330000
b10000101 5
0&
0#
00
#1335000
bx00xxxxxxxxxxxx00000000xxxxxxxx %
1&
1#
10
#1340000
b10000110 5
0&
0#
00
#1345000
bx00xxxxxxxxxxx00000000xxxxxxxx %
1&
1#
10
#1350000
b10000111 5
0&
0#
00
#1355000
bx00xxxxxxxxxx00000000xxxxxxxx %
1&
1#
10
#1360000
b10001000 5
0&
0#
00
#1365000
bx00xxxxxxxxx00000000xxxxxxxx %
1&
1#
10
#1370000
b10001001 5
0&
0#
00
#1375000
bx00xxxxxxxx00000000xxxxxxxx %
1&
1#
10
#1380000
b10001010 5
0&
0#
00
#1385000
bx0xxxxxxxx00000000xxxxxxxx %
1&
1#
10
#1390000
b10001011 5
0&
0#
00
#1395000
bx00000000xxxxxxxx %
1&
1#
10
#1400000
b10001100 5
0&
0#
00
#1405000
1&
1#
10
#1410000
b10001101 5
17
0&
0#
00
#1415000
1&
1#
10
#1420000
b10001110 5
07
0&
0#
00
#1425000
1&
1#
10
#1430000
b10001111 5
17
0&
0#
00
#1435000
bx0000000xxxxxxxx %
1&
1#
10
#1440000
b10010000 5
07
0&
0#
00
#1445000
bx00000000xxxxxxxx %
1&
1#
10
#1450000
b10010001 5
0&
0#
00
#1455000
bx00000000xxxxxxxx %
1&
1#
10
#1460000
b10010010 5
0&
0#
00
#1465000
bx0000000xxxxxxxx %
1&
1#
10
#1470000
b10010011 5
0&
0#
00
#1475000
bx00000000xxxxxxxx %
1&
1#
10
#1480000
b10010100 5
0&
0#
00
#1485000
bx0000000xxxxxxxx %
1&
1#
10
#1490000
b10010101 5
0&
0#
00
#1495000
bx00x00000xxxxxxxx %
1&
1#
10
#1500000
b10010110 5
0&
0#
00
#1505000
bx00000000xxxxxxxx %
1&
1#
10
#1510000
b10010111 5
0&
0#
00
#1515000
bx00000000xxxxxxxx %
1&
1#
10
#1520000
b10011000 5
0&
0#
00
#1525000
bx00x00000xxxxxxxx %
1&
1#
10
#1530000
b10011001 5
0&
0#
00
#1535000
bx00000000xxxxxxxx %
1&
1#
10
#1540000
b10011010 5
0&
0#
00
#1545000
bx00000000xxxxxxxx %
1&
1#
10
#1550000
b10011011 5
0&
0#
00
#1555000
0*
bx00000000xxxxxxxx %
1&
1#
10
#1560000
b10011100 5
0&
0#
00
#1565000
0*
bx00000000xxxxxxxx %
1&
1#
10
#1570000
b10011101 5
0&
0#
00
#1575000
0*
bx00000000xxxxxxxx %
1&
1#
10
#1580000
b10011110 5
0&
0#
00
#1585000
0*
bx00000000xxxxxxxx %
1&
1#
10
#1590000
b10011111 5
0&
0#
00
#1595000
0*
bx00000000xxxxxxxx %
1&
1#
10
#1600000
b10100000 5
0&
0#
00
#1605000
0*
bx00000000xxxxxxxx %
1&
1#
10
#1610000
b10100001 5
0&
0#
00
#1615000
0*
bx00000000xxxxxxxx %
1&
1#
10
#1620000
b10100010 5
0&
0#
00
#1625000
0*
bx00000000xxxxxxxx %
1&
1#
10
#1630000
b10100011 5
0&
0#
00
#1635000
0*
bx00000000xxxxxxxx %
1&
1#
10
#1640000
b10100100 5
0&
0#
00
#1645000
0*
bx00000000xxxxxxxx %
1&
1#
10
#1650000
b10100101 5
0&
0#
00
#1655000
0*
bx00000000xxxxxxxx %
1&
1#
10
#1660000
b10100110 5
0&
0#
00
#1665000
bx00000000xxxxxxxx %
1&
1#
10
#1670000
b10100111 5
0&
0#
00
#1675000
bx00000000xxxxxxxx %
1&
1#
10
#1680000
b10101000 5
0&
0#
00
#1685000
bx00000000xxxxxxxx %
1&
1#
10
#1690000
b10101001 5
0&
0#
00
#1695000
bx00000000xxxxxxxx %
1&
1#
10
#1700000
b10101010 5
0&
0#
00
#1705000
z*
bx0000z000xxxxxxxx %
1&
1#
10
#1710000
b10101011 5
0&
0#
00
#1715000
0*
bx00000000xxxxxxxx %
1&
1#
10
#1720000
b10101100 5
0&
0#
00
#1725000
0*
bx00000000xxxxxxxx %
1&
1#
10
#1730000
b10101101 5
0&
0#
00
#1735000
z*
bx0000z000xxxxxxxx %
1&
1#
10
#1740000
b10101110 5
0&
0#
00
#1745000
0*
bx0xxxxxxx00000000xxxxxxxx %
1&
1#
10
#1750000
b10101111 5
0&
0#
00
#1755000
z*
bx0xxxxxx0000z000xxxxxxxx %
1&
1#
10
#1760000
b10110000 5
0&
0#
00
#1765000
0*
bx0xxxxx00000000xxxxxxxx %
1&
1#
10
#1770000
b10110001 5
0&
0#
00
#1775000
z*
bx0xx0xxxx0000z000xxxxxxxx %
1&
1#
10
#1780000
b10110010 5
0&
0#
00
#1785000
0*
bx0xx0xxx00000000xxxxxxxx %
1&
1#
10
#1790000
b10110011 5
0&
0#
00
#1795000
z*
bx0x0xx0xx0000z000xxxxxxxx %
1&
1#
10
#1800000
b10110100 5
0&
0#
00
#1805000
bx0x0xx0x0000z000xxxxxxxx %
1&
1#
10
#1810000
b10110101 5
0&
0#
00
#1815000
bx0x0x0xx00000z000xxxxxxxx %
1&
1#
10
#1820000
b10110110 5
0&
0#
00
#1825000
b0xxxxxxxx0x0x0xx0000z000xxxxxxxx %
1&
1#
10
#1830000
b10110111 5
0&
0#
00
#1835000
bx0xxxxxx0x0x0x0x0000z000xxxxxxxx %
1&
1#
10
#1840000
b10111000 5
0&
0#
00
#1845000
bx0xxxxx00x0x0x00000z000xxxxxxxx %
1&
1#
10
#1850000
b10111001 5
0&
0#
00
#1855000
b0xx0xxxx000x0x0x0000z000xxxxxxxx %
1&
1#
10
#1860000
b10111010 5
0&
0#
00
#1865000
bx0xx0xxx0000x0x00000z000xxxxxxxx %
1&
1#
10
#1870000
b10111011 5
0&
0#
00
#1875000
b0x0xx0xx00000x0x0000z000xxxxxxxx %
1&
1#
10
#1880000
b10111100 5
0&
0#
00
#1885000
0*
bx0x0xx0x000000x000000000xxxxxxxx %
1&
1#
10
#1890000
b10111101 5
0&
0#
00
#1895000
b0x0x0xx00000000x00000000xxxxxxxx %
1&
1#
10
#1900000
b10111110 5
0&
0#
00
#1905000
bx0x0x0xx0000000000000000xxxxxxxx %
1&
1#
10
#1910000
b10111111 5
0&
0#
00
#1915000
b0x0x0x0x00000000000000000xxxxxxx %
1&
1#
10
#1920000
b11000000 5
0&
0#
00
#1925000
b0x0x0x0x00000000000000000xxxxxx %
1&
1#
10
#1930000
b11000001 5
0&
0#
00
#1935000
b0x0x0xxx00000000000000000xxxxx %
1&
1#
10
#1940000
b11000010 5
0&
0#
00
#1945000
b0x0x0xxx00000000000000000xxxx %
1&
1#
10
#1950000
b11000011 5
0&
0#
00
#1955000
b0x0xxxxx00000000000000000xxx %
1&
1#
10
#1960000
b11000100 5
0&
0#
00
#1965000
b0x0xxxxx00000000000000000xx %
1&
1#
10
#1970000
b11000101 5
0&
0#
00
#1975000
b0xxxxxxx00000000000000000x %
1&
1#
10
#1980000
b11000110 5
0&
0#
00
#1985000
b0xxxxxxx00000000000000001 %
1&
1#
10
#1990000
b11000111 5
0&
0#
00
#1995000
b0xxxxxxxx0000000000000001 %
1&
1#
10
#2000000
b11001000 5
0&
0#
00
#2005000
bx0000000xxxxxxxx0000000000000001 %
1&
1#
10
#2010000
b11001001 5
0&
0#
00
#2015000
bx000000xxxxxxxx000000000000000x %
1&
1#
10
#2020000
b11001010 5
0&
0#
00
#2025000
bx00000xxxxxxxx000000000000000x %
1&
1#
10
#2030000
b11001011 5
0&
0#
00
#2035000
bx0000xxxxxxxx000000000000000x %
1&
1#
10
#2040000
b11001100 5
0&
0#
00
#2045000
bx000xxxxxxxx000000000000000x %
1&
1#
10
#2050000
b11001101 5
0&
0#
00
#2055000
bx00xxxxxxxx000000000000000x %
1&
1#
10
#2060000
b11001110 5
0&
0#
00
#2065000
bx0xxxxxxxx000000000000000x %
1&
1#
10
#2070000
b11001111 5
0&
0#
00
#2075000
bx000000000000000x %
1&
1#
10
#2080000
b11010000 5
0&
0#
00
#2085000
1&
1#
10
#2090000
b11010001 5
0&
0#
00
#2095000
1&
1#
10
#2100000
b11010010 5
0&
0#
00
#2105000
bx0000000000000001 %
1&
1#
10
#2110000
b11010011 5
0&
0#
00
#2115000
1&
1#
10
#2120000
b11010100 5
0&
0#
00
#2125000
bx000000000000000x %
1&
1#
10
#2130000
b11010101 5
0&
0#
00
#2135000
1&
1#
10
#2140000
b11010110 5
0&
0#
00
#2145000
1&
1#
10
#2150000
b11010111 5
0&
0#
00
#2155000
1&
1#
10
#2160000
b11011000 5
0&
0#
00
#2165000
1&
1#
10
#2170000
b11011001 5
17
0&
0#
00
#2175000
1&
1#
10
#2180000
b11011010 5
0&
0#
00
#2185000
1&
1#
10
#2190000
b11011011 5
07
0&
0#
00
#2195000
bx000000000000000x %
1&
1#
10
#2200000
b11011100 5
0&
0#
00
#2205000
bx000000000000000x %
1&
1#
10
#2210000
b11011101 5
0&
0#
00
#2215000
bx000000000000000x %
1&
1#
10
#2220000
b11011110 5
0&
0#
00
#2225000
bx000000000000000x %
1&
1#
10
#2230000
b11011111 5
0&
0#
00
#2235000
bx000000000000000x %
1&
1#
10
#2240000
b11100000 5
0&
0#
00
#2245000
bx000000000000000x %
1&
1#
10
#2250000
b11100001 5
0&
0#
00
#2255000
bx000000000000000x %
1&
1#
10
#2260000
b11100010 5
0&
0#
00
#2265000
bx000000000000000x %
1&
1#
10
#2270000
b11100011 5
0&
0#
00
#2275000
bx000000000000000x %
1&
1#
10
#2280000
b11100100 5
0&
0#
00
#2285000
bx000000000000000x %
1&
1#
10
#2290000
b11100101 5
0&
0#
00
#2295000
bx000000000000000x %
1&
1#
10
#2300000
b11100110 5
0&
0#
00
#2305000
bx000000000000000x %
1&
1#
10
#2310000
b11100111 5
0&
0#
00
#2315000
0*
bx000000000000000x %
1&
1#
10
#2320000
b11101000 5
0&
0#
00
#2325000
0*
bx000000000000000x %
1&
1#
10
#2330000
b11101001 5
0&
0#
00
#2335000
0*
bx000000000000000x %
1&
1#
10
#2340000
b11101010 5
0&
0#
00
#2345000
0*
bx000000000000000x %
1&
1#
10
#2350000
b11101011 5
17
0&
0#
00
#2355000
0*
bx000000000000000x %
1&
1#
10
#2360000
b11101100 5
0&
0#
00
#2365000
bx000000000000000x %
1&
1#
10
#2370000
b11101101 5
0&
0#
00
#2375000
b0xxxxxxxxxxxxxxx000000000000000x %
1&
1#
10
#2380000
b11101110 5
0&
0#
00
#2385000
b0xxxxxxxxxxxxxxx000000000000000x %
1&
1#
10
#2390000
b11101111 5
0&
0#
00
#2395000
bx000000000000000x %
1&
1#
10
#2400000
b11110000 5
0&
0#
00
#2405000
b0xxxxxxxxxxxxxx000000000000000x %
1&
1#
10
#2410000
b11110001 5
0&
0#
00
#2415000
b0xxxxxxxxxxxxxx000000000000000x %
1&
1#
10
#2420000
b11110010 5
0&
0#
00
#2425000
b0xxxxxxxxxxxxxx00000000x000000x %
1&
1#
10
#2430000
b11110011 5
07
0&
0#
00
#2435000
b0xxxxxxxxxxxxx00000000x000000x %
1&
1#
10
#2440000
b11110100 5
0&
0#
00
#2445000
b0xxxxxxxxxxxxx00000000x0x0000x %
1&
1#
10
#2450000
b11110101 5
0&
0#
00
#2455000
b0xxxxxxxxxxxxx00000000000x000x %
1&
1#
10
#2460000
b11110110 5
0&
0#
00
#2465000
z*
b0xxxxxxxxxxxx0000z00000x0000x %
1&
1#
10
#2470000
b11110111 5
0&
0#
00
#2475000
0*
b0xxxxxxxxxxxx00000000000x000x %
1&
1#
10
#2480000
b11111000 5
0&
0#
00
#2485000
z*
b0xxxxxxxxxxxx0000z0000000000x %
1&
1#
10
#2490000
b11111001 5
0&
0#
00
#2495000
0*
b0xxxxxxxxxxx00000000000x000x %
1&
1#
10
#2500000
b11111010 5
0&
0#
00
#2505000
b0xxx0xxxxxxx000000000000000x %
1&
1#
10
#2510000
b11111011 5
0&
0#
00
#2515000
b0xxxx0xxxxxx000000000000000x %
1&
1#
10
#2520000
b11111100 5
0&
0#
00
#2525000
b0xx0x0xxxxx000000000000000x %
1&
1#
10
#2530000
b11111101 5
0&
0#
00
#2535000
b0xxx0x0xxxx000000000000000x %
1&
1#
10
#2540000
b11111110 5
0&
0#
00
#2545000
b0xxxx0x0xxx000000000000000x %
1&
1#
10
#2550000
b11111111 5
0&
0#
00
#2555000
b0xxxx0x0xx000000000000000x %
1&
1#
10
#2560000
b100000000 5
0&
0#
00
#2565000
b0xxxxx0x0x000000000000000x %
1&
1#
10
#2570000
b100000001 5
0&
0#
00
#2575000
b0xxxxxx0x0000000000000000x %
1&
1#
10
#2580000
b100000010 5
0&
0#
00
#2585000
b0xxxxxx0x000000000000000x %
1&
1#
10
#2590000
b100000011 5
0&
0#
00
#2595000
b0xxxxxxx0000000000000000x %
1&
1#
10
#2600000
b100000100 5
0&
0#
00
#2605000
b0xxxxxxxx000000000000000x %
1&
1#
10
#2610000
b100000101 5
0&
0#
00
#2615000
b0xxxxxxxx000000000000000x %
1&
1#
10
#2620000
b100000110 5
0&
0#
00
#2625000
b0xxxxxxxx0000000000000001 %
1&
1#
10
#2630000
b100000111 5
0&
0#
00
#2635000
b0xxxxxxxx000000000000000x %
1&
1#
10
#2640000
b100001000 5
0&
0#
00
#2645000
b0xxxxxxxx000000000000000x %
1&
1#
10
#2650000
b100001001 5
0&
0#
00
#2655000
b0xxxxxxxx0000000000000001 %
1&
1#
10
#2660000
b100001010 5
0&
0#
00
#2665000
b0xxxxxxxx000000000000000x %
1&
1#
10
#2670000
b100001011 5
0&
0#
00
#2675000
b0xxxxxxxx0000000000000001 %
1&
1#
10
#2680000
b100001100 5
0&
0#
00
#2685000
b0xxxxxxx000000000000000x %
1&
1#
10
#2690000
b100001101 5
0&
0#
00
#2695000
b0xxxxxxx0000000000000001 %
1&
1#
10
#2700000
b100001110 5
17
0&
0#
00
#2705000
b0xxxxxxx000000000000000x %
1&
1#
10
#2710000
b100001111 5
07
0&
0#
00
#2715000
b0xxxxxx0000000000000001 %
1&
1#
10
#2720000
b100010000 5
17
0&
0#
00
#2725000
b0xxxxxx0000000000000001 %
1&
1#
10
#2730000
b100010001 5
07
0&
0#
00
#2735000
b0xxxxxx0000000000000001 %
1&
1#
10
#2740000
b100010010 5
0&
0#
00
#2745000
b0xxxxx0000000000000001 %
1&
1#
10
#2750000
b100010011 5
0&
0#
00
#2755000
b0xxxxxx0000000000000001 %
1&
1#
10
#2760000
b100010100 5
0&
0#
00
#2765000
b0xxxxx0000000000000001 %
1&
1#
10
#2770000
b100010101 5
0&
0#
00
#2775000
b0xxxx0000000000000001 %
1&
1#
10
#2780000
b100010110 5
0&
0#
00
#2785000
b0xxxxx0000000000000001 %
1&
1#
10
#2790000
b100010111 5
0&
0#
00
#2795000
b0xxxx0000000000000001 %
1&
1#
10
#2800000
b100011000 5
0&
0#
00
#2805000
b0xxxx000000000000000x %
1&
1#
10
#2810000
b100011001 5
0&
0#
00
#2815000
b0xxx000000000000000x %
1&
1#
10
#2820000
b100011010 5
0&
0#
00
#2825000
b0xxx000000000000000x %
1&
1#
10
#2830000
b100011011 5
0&
0#
00
#2835000
b0xx000000000000000x %
1&
1#
10
#2840000
b100011100 5
0&
0#
00
#2845000
b0xx000000000000000x %
1&
1#
10
#2850000
b100011101 5
0&
0#
00
#2855000
b0xx000000000000000x %
1&
1#
10
#2860000
b100011110 5
0&
0#
00
#2865000
b0x000000000000000x %
1&
1#
10
#2870000
b100011111 5
0&
0#
00
#2875000
b0x000000000000000x %
1&
1#
10
#2880000
b100100000 5
0&
0#
00
#2885000
b0x00xx000000000000000x %
1&
1#
10
#2890000
b100100001 5
0&
0#
00
#2895000
b0x %
1&
1#
10
#2900000
b100100010 5
0&
0#
00
#2905000
b0x %
1&
1#
10
#2910000
b100100011 5
0&
0#
00
#2915000
b0x00x000000000000000x %
1&
1#
10
#2920000
b100100100 5
0&
0#
00
#2925000
b0x %
1&
1#
10
#2930000
b100100101 5
0&
0#
00
#2935000
b0x %
1&
1#
10
#2940000
b100100110 5
0&
0#
00
#2945000
b0x %
1&
1#
10
#2950000
b100100111 5
0&
0#
00
#2955000
b0x %
1&
1#
10
#2960000
b100101000 5
0&
0#
00
#2965000
b0x00000000000000x %
1&
1#
10
#2970000
b100101001 5
0&
0#
00
#2975000
b0x %
1&
1#
10
#2980000
b100101010 5
0&
0#
00
#2985000
b0x %
1&
1#
10
#2990000
b100101011 5
0&
0#
00
#2995000
b0x %
1&
1#
10
#3000000
b100101100 5
0&
0#
00
#3005000
b0x %
1&
1#
10
#3010000
b100101101 5
0&
0#
00
#3015000
b0x %
1&
1#
10
#3020000
b100101110 5
0&
0#
00
#3025000
b0x %
1&
1#
10
#3030000
b100101111 5
0&
0#
00
#3035000
bx000000000000000000000000000000x %
1&
1#
10
#3040000
b100110000 5
0&
0#
00
#3045000
b0x %
1&
1#
10
#3050000
b100110001 5
0&
0#
00
#3055000
bx000000000000000000000000000000x %
1&
1#
10
#3060000
b100110010 5
0&
0#
00
#3065000
b0x %
1&
1#
10
#3070000
b100110011 5
0&
0#
00
#3075000
b0x %
1&
1#
10
#3080000
b100110100 5
17
0&
0#
00
#3085000
0*
b0x %
1&
1#
10
#3090000
b100110101 5
0&
0#
00
#3095000
0*
b0x %
1&
1#
10
#3100000
b100110110 5
0&
0#
00
#3105000
0*
b0x %
1&
1#
10
#3110000
b100110111 5
0&
0#
00
#3115000
b0x %
1&
1#
10
#3120000
b100111000 5
0&
0#
00
#3125000
b0x %
1&
1#
10
#3130000
b100111001 5
0&
0#
00
#3135000
b0x %
1&
1#
10
#3140000
b100111010 5
0&
0#
00
#3145000
b0x %
1&
1#
10
#3150000
b100111011 5
0&
0#
00
#3155000
b0x00000000000000000000000000x %
1&
1#
10
#3160000
b100111100 5
0&
0#
00
#3165000
b0x %
1&
1#
10
#3170000
b100111101 5
0&
0#
00
#3175000
b0x %
1&
1#
10
#3180000
b100111110 5
0&
0#
00
#3185000
b0x000x %
1&
1#
10
#3190000
b100111111 5
0&
0#
00
#3195000
b0x %
1&
1#
10
#3200000
b101000000 5
0&
0#
00
#3205000
b0x %
1&
1#
10
#3210000
b101000001 5
0&
0#
00
#3215000
b0x %
1&
1#
10
#3220000
b101000010 5
0&
0#
00
#3225000
z*
b0z0000000000x %
1&
1#
10
#3230000
b101000011 5
0&
0#
00
#3235000
b0z0000000000x %
1&
1#
10
#3240000
b101000100 5
0&
0#
00
#3245000
0*
b0x %
1&
1#
10
#3250000
b101000101 5
0&
0#
00
#3255000
b0x %
1&
1#
10
#3260000
b101000110 5
0&
0#
00
#3265000
b0x %
1&
1#
10
#3270000
b101000111 5
07
0&
0#
00
#3275000
b0xx %
1&
1#
10
#3280000
b101001000 5
17
0&
0#
00
#3285000
b0x %
1&
1#
10
#3290000
b101001001 5
0&
0#
00
