Fabric/tasks/synthesizable_verilog/8x8/k6_frac_N10_tileable_40nm/and2/MIN_ROUTE_CHAN_WIDTH/and2_formal.vcd
$date
    Nov  3, 2024  16:28:40
$end
$version
    TOOL:	xmsim(64)	23.03-s007
$end
$timescale
    1 ps
$end

$scope module and2_autocheck_top_tb $end
$var wire      1 !    pReset [0] $end
$var wire      1 "    prog_clk [0] $end
$var wire      1 #    set [0] $end
$var wire      1 $    reset [0] $end
$var wire      1 %    clk [0] $end
$var wire      1 &    gfpga_pad_GPIO_PAD [0] $end
$var wire      1 '    gfpga_pad_GPIO_PAD [1] $end
$var wire      1 (    gfpga_pad_GPIO_PAD [2] $end
$var wire      1 )    gfpga_pad_GPIO_PAD [3] $end
$var wire      1 *    gfpga_pad_GPIO_PAD [4] $end
$var wire      1 +    gfpga_pad_GPIO_PAD [5] $end
$var wire      1 ,    gfpga_pad_GPIO_PAD [6] $end
$var wire      1 -    gfpga_pad_GPIO_PAD [7] $end
$var wire      1 .    gfpga_pad_GPIO_PAD [8] $end
$var wire      1 /    gfpga_pad_GPIO_PAD [9] $end
$var wire      1 0    gfpga_pad_GPIO_PAD [10] $end
$var wire      1 1    gfpga_pad_GPIO_PAD [11] $end
$var wire      1 2    gfpga_pad_GPIO_PAD [12] $end
$var wire      1 3    gfpga_pad_GPIO_PAD [13] $end
$var wire      1 4    gfpga_pad_GPIO_PAD [14] $end
$var wire      1 5    gfpga_pad_GPIO_PAD [15] $end
$var wire      1 6    gfpga_pad_GPIO_PAD [16] $end
$var wire      1 7    gfpga_pad_GPIO_PAD [17] $end
$var wire      1 8    gfpga_pad_GPIO_PAD [18] $end
$var wire      1 9    gfpga_pad_GPIO_PAD [19] $end
$var wire      1 :    gfpga_pad_GPIO_PAD [20] $end
$var wire      1 ;    gfpga_pad_GPIO_PAD [21] $end
$var wire      1 <    gfpga_pad_GPIO_PAD [22] $end
$var wire      1 =    gfpga_pad_GPIO_PAD [23] $end
$var wire      1 >    gfpga_pad_GPIO_PAD [24] $end
$var wire      1 ?    gfpga_pad_GPIO_PAD [25] $end
$var wire      1 @    gfpga_pad_GPIO_PAD [26] $end
$var wire      1 A    gfpga_pad_GPIO_PAD [27] $end
$var wire      1 B    gfpga_pad_GPIO_PAD [28] $end
$var wire      1 C    gfpga_pad_GPIO_PAD [29] $end
$var wire      1 D    gfpga_pad_GPIO_PAD [30] $end
$var wire      1 E    gfpga_pad_GPIO_PAD [31] $end
$var wire      1 F    gfpga_pad_GPIO_PAD [32] $end
$var wire      1 G    gfpga_pad_GPIO_PAD [33] $end
$var wire      1 H    gfpga_pad_GPIO_PAD [34] $end
$var wire      1 I    gfpga_pad_GPIO_PAD [35] $end
$var wire      1 J    gfpga_pad_GPIO_PAD [36] $end
$var wire      1 K    gfpga_pad_GPIO_PAD [37] $end
$var wire      1 L    gfpga_pad_GPIO_PAD [38] $end
$var wire      1 M    gfpga_pad_GPIO_PAD [39] $end
$var wire      1 N    gfpga_pad_GPIO_PAD [40] $end
$var wire      1 O    gfpga_pad_GPIO_PAD [41] $end
$var wire      1 P    gfpga_pad_GPIO_PAD [42] $end
$var wire      1 Q    gfpga_pad_GPIO_PAD [43] $end
$var wire      1 R    gfpga_pad_GPIO_PAD [44] $end
$var wire      1 S    gfpga_pad_GPIO_PAD [45] $end
$var wire      1 T    gfpga_pad_GPIO_PAD [46] $end
$var wire      1 U    gfpga_pad_GPIO_PAD [47] $end
$var wire      1 V    gfpga_pad_GPIO_PAD [48] $end
$var wire      1 W    gfpga_pad_GPIO_PAD [49] $end
$var wire      1 X    gfpga_pad_GPIO_PAD [50] $end
$var wire      1 Y    gfpga_pad_GPIO_PAD [51] $end
$var wire      1 Z    gfpga_pad_GPIO_PAD [52] $end
$var wire      1 [    gfpga_pad_GPIO_PAD [53] $end
$var wire      1 \    gfpga_pad_GPIO_PAD [54] $end
$var wire      1 ]    gfpga_pad_GPIO_PAD [55] $end
$var wire      1 ^    gfpga_pad_GPIO_PAD [56] $end
$var wire      1 _    gfpga_pad_GPIO_PAD [57] $end
$var wire      1 `    gfpga_pad_GPIO_PAD [58] $end
$var wire      1 a    gfpga_pad_GPIO_PAD [59] $end
$var wire      1 b    gfpga_pad_GPIO_PAD [60] $end
$var wire      1 c    gfpga_pad_GPIO_PAD [61] $end
$var wire      1 d    gfpga_pad_GPIO_PAD [62] $end
$var wire      1 e    gfpga_pad_GPIO_PAD [63] $end
$var wire      1 f    gfpga_pad_GPIO_PAD [64] $end
$var wire      1 g    gfpga_pad_GPIO_PAD [65] $end
$var wire      1 h    gfpga_pad_GPIO_PAD [66] $end
$var wire      1 i    gfpga_pad_GPIO_PAD [67] $end
$var wire      1 j    gfpga_pad_GPIO_PAD [68] $end
$var wire      1 k    gfpga_pad_GPIO_PAD [69] $end
$var wire      1 l    gfpga_pad_GPIO_PAD [70] $end
$var wire      1 m    gfpga_pad_GPIO_PAD [71] $end
$var wire      1 n    gfpga_pad_GPIO_PAD [72] $end
$var wire      1 o    gfpga_pad_GPIO_PAD [73] $end
$var wire      1 p    gfpga_pad_GPIO_PAD [74] $end
$var wire      1 q    gfpga_pad_GPIO_PAD [75] $end
$var wire      1 r    gfpga_pad_GPIO_PAD [76] $end
$var wire      1 s    gfpga_pad_GPIO_PAD [77] $end
$var wire      1 t    gfpga_pad_GPIO_PAD [78] $end
$var wire      1 u    gfpga_pad_GPIO_PAD [79] $end
$var wire      1 v    gfpga_pad_GPIO_PAD [80] $end
$var wire      1 w    gfpga_pad_GPIO_PAD [81] $end
$var wire      1 x    gfpga_pad_GPIO_PAD [82] $end
$var wire      1 y    gfpga_pad_GPIO_PAD [83] $end
$var wire      1 z    gfpga_pad_GPIO_PAD [84] $end
$var wire      1 {    gfpga_pad_GPIO_PAD [85] $end
$var wire      1 |    gfpga_pad_GPIO_PAD [86] $end
$var wire      1 }    gfpga_pad_GPIO_PAD [87] $end
$var wire      1 ~    gfpga_pad_GPIO_PAD [88] $end
$var wire      1 !!   gfpga_pad_GPIO_PAD [89] $end
$var wire      1 "!   gfpga_pad_GPIO_PAD [90] $end
$var wire      1 #!   gfpga_pad_GPIO_PAD [91] $end
$var wire      1 $!   gfpga_pad_GPIO_PAD [92] $end
$var wire      1 %!   gfpga_pad_GPIO_PAD [93] $end
$var wire      1 &!   gfpga_pad_GPIO_PAD [94] $end
$var wire      1 '!   gfpga_pad_GPIO_PAD [95] $end
$var wire      1 (!   gfpga_pad_GPIO_PAD [96] $end
$var wire      1 )!   gfpga_pad_GPIO_PAD [97] $end
$var wire      1 *!   gfpga_pad_GPIO_PAD [98] $end
$var wire      1 +!   gfpga_pad_GPIO_PAD [99] $end
$var wire      1 ,!   gfpga_pad_GPIO_PAD [100] $end
$var wire      1 -!   gfpga_pad_GPIO_PAD [101] $end
$var wire      1 .!   gfpga_pad_GPIO_PAD [102] $end
$var wire      1 /!   gfpga_pad_GPIO_PAD [103] $end
$var wire      1 0!   gfpga_pad_GPIO_PAD [104] $end
$var wire      1 1!   gfpga_pad_GPIO_PAD [105] $end
$var wire      1 2!   gfpga_pad_GPIO_PAD [106] $end
$var wire      1 3!   gfpga_pad_GPIO_PAD [107] $end
$var wire      1 4!   gfpga_pad_GPIO_PAD [108] $end
$var wire      1 5!   gfpga_pad_GPIO_PAD [109] $end
$var wire      1 6!   gfpga_pad_GPIO_PAD [110] $end
$var wire      1 7!   gfpga_pad_GPIO_PAD [111] $end
$var wire      1 8!   gfpga_pad_GPIO_PAD [112] $end
$var wire      1 9!   gfpga_pad_GPIO_PAD [113] $end
$var wire      1 :!   gfpga_pad_GPIO_PAD [114] $end
$var wire      1 ;!   gfpga_pad_GPIO_PAD [115] $end
$var wire      1 <!   gfpga_pad_GPIO_PAD [116] $end
$var wire      1 =!   gfpga_pad_GPIO_PAD [117] $end
$var wire      1 >!   gfpga_pad_GPIO_PAD [118] $end
$var wire      1 ?!   gfpga_pad_GPIO_PAD [119] $end
$var wire      1 @!   gfpga_pad_GPIO_PAD [120] $end
$var wire      1 A!   gfpga_pad_GPIO_PAD [121] $end
$var wire      1 B!   gfpga_pad_GPIO_PAD [122] $end
$var wire      1 C!   gfpga_pad_GPIO_PAD [123] $end
$var wire      1 D!   gfpga_pad_GPIO_PAD [124] $end
$var wire      1 E!   gfpga_pad_GPIO_PAD [125] $end
$var wire      1 F!   gfpga_pad_GPIO_PAD [126] $end
$var wire      1 G!   gfpga_pad_GPIO_PAD [127] $end
$var wire      1 H!   gfpga_pad_GPIO_PAD [128] $end
$var wire      1 I!   gfpga_pad_GPIO_PAD [129] $end
$var wire      1 J!   gfpga_pad_GPIO_PAD [130] $end
$var wire      1 K!   gfpga_pad_GPIO_PAD [131] $end
$var wire      1 L!   gfpga_pad_GPIO_PAD [132] $end
$var wire      1 M!   gfpga_pad_GPIO_PAD [133] $end
$var wire      1 N!   gfpga_pad_GPIO_PAD [134] $end
$var wire      1 O!   gfpga_pad_GPIO_PAD [135] $end
$var wire      1 P!   gfpga_pad_GPIO_PAD [136] $end
$var wire      1 Q!   gfpga_pad_GPIO_PAD [137] $end
$var wire      1 R!   gfpga_pad_GPIO_PAD [138] $end
$var wire      1 S!   gfpga_pad_GPIO_PAD [139] $end
$var wire      1 T!   gfpga_pad_GPIO_PAD [140] $end
$var wire      1 U!   gfpga_pad_GPIO_PAD [141] $end
$var wire      1 V!   gfpga_pad_GPIO_PAD [142] $end
$var wire      1 W!   gfpga_pad_GPIO_PAD [143] $end
$var wire      1 X!   gfpga_pad_GPIO_PAD [144] $end
$var wire      1 Y!   gfpga_pad_GPIO_PAD [145] $end
$var wire      1 Z!   gfpga_pad_GPIO_PAD [146] $end
$var wire      1 [!   gfpga_pad_GPIO_PAD [147] $end
$var wire      1 \!   gfpga_pad_GPIO_PAD [148] $end
$var wire      1 ]!   gfpga_pad_GPIO_PAD [149] $end
$var wire      1 ^!   gfpga_pad_GPIO_PAD [150] $end
$var wire      1 _!   gfpga_pad_GPIO_PAD [151] $end
$var wire      1 `!   gfpga_pad_GPIO_PAD [152] $end
$var wire      1 a!   gfpga_pad_GPIO_PAD [153] $end
$var wire      1 b!   gfpga_pad_GPIO_PAD [154] $end
$var wire      1 c!   gfpga_pad_GPIO_PAD [155] $end
$var wire      1 d!   gfpga_pad_GPIO_PAD [156] $end
$var wire      1 e!   gfpga_pad_GPIO_PAD [157] $end
$var wire      1 f!   gfpga_pad_GPIO_PAD [158] $end
$var wire      1 g!   gfpga_pad_GPIO_PAD [159] $end
$var wire      1 h!   gfpga_pad_GPIO_PAD [160] $end
$var wire      1 i!   gfpga_pad_GPIO_PAD [161] $end
$var wire      1 j!   gfpga_pad_GPIO_PAD [162] $end
$var wire      1 k!   gfpga_pad_GPIO_PAD [163] $end
$var wire      1 l!   gfpga_pad_GPIO_PAD [164] $end
$var wire      1 m!   gfpga_pad_GPIO_PAD [165] $end
$var wire      1 n!   gfpga_pad_GPIO_PAD [166] $end
$var wire      1 o!   gfpga_pad_GPIO_PAD [167] $end
$var wire      1 p!   gfpga_pad_GPIO_PAD [168] $end
$var wire      1 q!   gfpga_pad_GPIO_PAD [169] $end
$var wire      1 r!   gfpga_pad_GPIO_PAD [170] $end
$var wire      1 s!   gfpga_pad_GPIO_PAD [171] $end
$var wire      1 t!   gfpga_pad_GPIO_PAD [172] $end
$var wire      1 u!   gfpga_pad_GPIO_PAD [173] $end
$var wire      1 v!   gfpga_pad_GPIO_PAD [174] $end
$var wire      1 w!   gfpga_pad_GPIO_PAD [175] $end
$var wire      1 x!   gfpga_pad_GPIO_PAD [176] $end
$var wire      1 y!   gfpga_pad_GPIO_PAD [177] $end
$var wire      1 z!   gfpga_pad_GPIO_PAD [178] $end
$var wire      1 {!   gfpga_pad_GPIO_PAD [179] $end
$var wire      1 |!   gfpga_pad_GPIO_PAD [180] $end
$var wire      1 }!   gfpga_pad_GPIO_PAD [181] $end
$var wire      1 ~!   gfpga_pad_GPIO_PAD [182] $end
$var wire      1 !"   gfpga_pad_GPIO_PAD [183] $end
$var wire      1 ""   gfpga_pad_GPIO_PAD [184] $end
$var wire      1 #"   gfpga_pad_GPIO_PAD [185] $end
$var wire      1 $"   gfpga_pad_GPIO_PAD [186] $end
$var wire      1 %"   gfpga_pad_GPIO_PAD [187] $end
$var wire      1 &"   gfpga_pad_GPIO_PAD [188] $end
$var wire      1 '"   gfpga_pad_GPIO_PAD [189] $end
$var wire      1 ("   gfpga_pad_GPIO_PAD [190] $end
$var wire      1 )"   gfpga_pad_GPIO_PAD [191] $end
$var reg       1 *"   __config_done__ [0:0] $end
$var wire      1 +"   __config_all_done__ [0] $end
$var wire      1 ,"   __prog_clock__ [0] $end
$var reg       1 -"   __prog_clock___reg__ [0:0] $end
$var wire      1 ."   __op_clock__ [0] $end
$var reg       1 /"   __op_clock___reg__ [0:0] $end
$var reg       1 0"   __prog_reset__ [0:0] $end
$var reg       1 1"   __prog_set_ [0:0] $end
$var reg       1 2"   __greset__ [0:0] $end
$var reg       1 3"   __gset__ [0:0] $end
$var reg       1 4"   ccff_head [0:0] $end
$var wire      1 5"   ccff_tail [0] $end
$var reg       1 6"   a_shared_input [0:0] $end
$var reg       1 7"   b_shared_input [0:0] $end
$var wire      1 8"   c_fpga [0] $end
$var wire      1 9"   c_benchmark [0] $end
$var reg       1 :"   c_flag [0:0] $end
$var integer  32 ;"   nb_error $end
$var reg      17 <"   bit_index [16:0] $end
$var reg      17 ="   ibit [16:0] $end
$var reg       1 >"   skip_bits [0:0] $end
$var reg       1 ?"   sim_start [0:0] $end
$upscope $end

$enddefinitions $end
$dumpvars
1!
0"
1#
0$
0%
x&
x'
x(
x)
x*
x+
x,
x-
x.
x/
x0
x1
x2
x3
x4
x5
x6
x7
x8
x9
x:
x;
x<
x=
x>
x?
x@
xA
xB
xC
xD
xE
xF
xG
xH
xI
xJ
xK
xL
xM
xN
xO
xP
xQ
xR
xS
xT
xU
xV
xW
xX
xY
xZ
x[
x\
x]
x^
x_
x`
xa
xb
xc
xd
xe
xf
xg
xh
xi
xj
xk
xl
xm
xn
xo
xp
xq
xr
xs
xt
xu
xv
xw
xx
xy
xz
x{
x|
x}
x~
x!!
x"!
x#!
x$!
x%!
x&!
x'!
x(!
x)!
x*!
x+!
x,!
x-!
x.!
x/!
x0!
x1!
x2!
x3!
x4!
x5!
x6!
x7!
x8!
x9!
x:!
x;!
x<!
x=!
x>!
x?!
x@!
xA!
xB!
xC!
xD!
xE!
xF!
xG!
xH!
xI!
xJ!
xK!
xL!
xM!
xN!
xO!
xP!
xQ!
xR!
xS!
xT!
xU!
xV!
xW!
xX!
xY!
xZ!
x[!
x\!
x]!
x^!
x_!
x`!
xa!
xb!
xc!
xd!
xe!
xf!
xg!
xh!
xi!
xj!
xk!
xl!
xm!
xn!
xo!
xp!
xq!
xr!
xs!
xt!
xu!
xv!
xw!
xx!
xy!
xz!
x{!
x|!
x}!
x~!
x!"
x""
x#"
x$"
x%"
x&"
x'"
x("
x)"
0*"
0+"
0,"
0-"
0."
0/"
10"
11"
12"
03"
04"
x5"
16"
07"
x8"
09"
0:"
b1 ;"
b0 <"
b1011000000111010 ="
0>"
1?"
$end
#5000
1-"
#10000
00"
01"
0-"
b1 <"
#15000
1-"
1,"
1"
#20000
0-"
0,"
0"
b10 <"
#25000
1-"
1,"
1"
#30000
0-"
0,"
0"
b11 <"
#35000
1-"
1,"
1"
#40000
0-"
0,"
0"
b100 <"
#45000
1-"
1,"
1"
#50000
0-"
0,"
0"
b101 <"
#55000
1-"
1,"
1"
#60000
0-"
0,"
0"
b110 <"
#65000
1-"
1,"
1"
#70000
0-"
0,"
0"
b111 <"
#75000
1-"
1,"
1"
#80000
0-"
0,"
0"
b1000 <"
#85000
1-"
1,"
1"
#90000
0-"
0,"
0"
b1001 <"
#95000
1-"
1,"
1"
#100000
0-"
0,"
0"
b1010 <"
#105000
1-"
1,"
1"
#110000
0-"
0,"
0"
b1011 <"
#115000
1-"
1,"
1"
#120000
0-"
0,"
0"
b1100 <"
#125000
1-"
1,"
1"
#130000
0-"
0,"
0"
b1101 <"
#135000
1-"
1,"
1"
#140000
0-"
0,"
0"
b1110 <"
#145000
1-"
1,"
1"
#150000
0-"
0,"
0"
b1111 <"
#155000
1-"
1,"
1"
#160000
0-"
0,"
0"
b10000 <"
#165000
1-"
1,"
1"
#170000
0-"
0,"
0"
b10001 <"
#175000
1-"
1,"
1"
#180000
0-"
0,"
0"
b10010 <"
#185000
1-"
1,"
1"
#190000
0-"
0,"
0"
b10011 <"
#195000
1-"
1,"
1"
#200000
0-"
0,"
0"
b10100 <"
#205000
1-"
1,"
1"
#210000
0-"
0,"
0"
b10101 <"
#215000
1-"
1,"
1"
#220000
0-"
0,"
0"
b10110 <"
#225000
1-"
1,"
1"
#230000
0-"
0,"
0"
b10111 <"
#235000
1-"
1,"
1"
#240000
0-"
0,"
0"
b11000 <"
#245000
1-"
1,"
1"
#250000
0-"
0,"
0"
b11001 <"
#255000
1-"
1,"
1"
#260000
0-"
0,"
0"
b11010 <"
#265000
1-"
1,"
1"
#270000
0-"
0,"
0"
b11011 <"
#275000
1-"
1,"
1"
#280000
0-"
0,"
0"
b11100 <"
#285000
1-"
1,"
1"
#290000
0-"
0,"
0"
b11101 <"
#295000
1-"
1,"
1"
#300000
0-"
0,"
0"
b11110 <"
#305000
1-"
1,"
1"
#310000
0-"
0,"
0"
b11111 <"
#315000
1-"
1,"
1"
#320000
0-"
0,"
0"
b100000 <"
#325000
1-"
1,"
1"
#330000
0-"
0,"
0"
b100001 <"
#335000
1-"
1,"
1"
#340000
0-"
0,"
0"
b100010 <"
#345000
1-"
1,"
1"
#350000
0-"
0,"
0"
b100011 <"
#355000
1-"
1,"
1"
#360000
0-"
0,"
0"
b100100 <"
#365000
1-"
1,"
1"
#370000
0-"
0,"
0"
b100101 <"
#375000
1-"
1,"
1"
#380000
0-"
0,"
0"
b100110 <"
#385000
1-"
1,"
1"
#390000
0-"
0,"
0"
b100111 <"
#395000
1-"
1,"
1"
#400000
0-"
0,"
0"
b101000 <"
#405000
1-"
1,"
1"
#410000
0-"
0,"
0"
b101001 <"
#415000
1-"
1,"
1"
#420000
0-"
0,"
0"
b101010 <"
#425000
1-"
1,"
1"
#430000
0-"
0,"
0"
b101011 <"
#435000
1-"
1,"
1"
#440000
0-"
0,"
0"
b101100 <"
#445000
1-"
1,"
1"
#450000
0-"
0,"
0"
b101101 <"
#455000
1-"
1,"
1"
#460000
0-"
0,"
0"
b101110 <"
#465000
1-"
1,"
1"
#470000
0-"
0,"
0"
b101111 <"
#475000
1-"
1,"
1"
#480000
0-"
0,"
0"
b110000 <"
#485000
1-"
1,"
1"
#490000
0-"
0,"
0"
b110001 <"
#495000
1-"
1,"
1"
#500000
0-"
0,"
0"
b110010 <"
#505000
1-"
1,"
1"
#510000
0-"
0,"
0"
b110011 <"
#515000
1-"
1,"
1"
#520000
0-"
0,"
0"
b110100 <"
#525000
1-"
1,"
1"
#530000
0-"
0,"
0"
b110101 <"
#535000
1-"
1,"
1"
#540000
0-"
0,"
0"
b110110 <"
#545000
1-"
1,"
1"
#550000
0-"
0,"
0"
b110111 <"
#555000
1-"
1,"
1"
#560000
0-"
0,"
0"
b111000 <"
#565000
1-"
1,"
1"
#570000
0-"
0,"
0"
b111001 <"
#575000
1-"
1,"
1"
#580000
0-"
0,"
0"
b111010 <"
#585000
1-"
1,"
1"
#590000
0-"
0,"
0"
b111011 <"
#595000
1-"
1,"
1"
#600000
0-"
0,"
0"
b111100 <"
#605000
1-"
1,"
1"
#610000
0-"
0,"
0"
b111101 <"
#615000
1-"
1,"
1"
#620000
0-"
0,"
0"
b111110 <"
#625000
1-"
1,"
1"
#630000
0-"
0,"
0"
b111111 <"
#635000
1-"
1,"
1"
#640000
0-"
0,"
0"
b1000000 <"
#645000
1-"
1,"
1"
#650000
0-"
0,"
0"
b1000001 <"
#655000
1-"
1,"
1"
#660000
0-"
0,"
0"
b1000010 <"
#665000
1-"
1,"
1"
#670000
0-"
0,"
0"
b1000011 <"
#675000
1-"
1,"
1"
#680000
0-"
0,"
0"
b1000100 <"
#685000
1-"
1,"
1"
#690000
0-"
0,"
0"
b1000101 <"
#695000
1-"
1,"
1"
#700000
0-"
0,"
0"
b1000110 <"
#705000
1-"
1,"
1"
#710000
0-"
0,"
0"
b1000111 <"
#715000
1-"
1,"
1"
#720000
0-"
0,"
0"
b1001000 <"
#725000
1-"
1,"
1"
#730000
0-"
0,"
0"
b1001001 <"
#735000
1-"
1,"
1"
#740000
0-"
0,"
0"
b1001010 <"
#745000
1-"
1,"
1"
#750000
0-"
0,"
0"
b1001011 <"
#755000
1-"
1,"
1"
#760000
0-"
0,"
0"
b1001100 <"
#765000
1-"
1,"
1"
#770000
0-"
0,"
0"
b1001101 <"
#775000
1-"
1,"
1"
#780000
0-"
0,"
0"
b1001110 <"
#785000
1-"
1,"
1"
#790000
0-"
0,"
0"
b1001111 <"
#795000
1-"
1,"
1"
#800000
0-"
0,"
0"
b1010000 <"
#805000
1-"
1,"
1"
#810000
0-"
0,"
0"
b1010001 <"
#815000
1-"
1,"
1"
#820000
0-"
0,"
0"
b1010010 <"
#825000
1-"
1,"
1"
#830000
0-"
0,"
0"
b1010011 <"
#835000
1-"
1,"
1"
#840000
0-"
0,"
0"
b1010100 <"
#845000
1-"
1,"
1"
#850000
0-"
0,"
0"
b1010101 <"
#855000
1-"
1,"
1"
#860000
0-"
0,"
0"
b1010110 <"
#865000
1-"
1,"
1"
#870000
0-"
0,"
0"
b1010111 <"
#875000
1-"
1,"
1"
#880000
0-"
0,"
0"
b1011000 <"
#885000
1-"
1,"
1"
#890000
0-"
0,"
0"
b1011001 <"
#895000
1-"
1,"
1"
#900000
0-"
0,"
0"
b1011010 <"
#905000
1-"
1,"
1"
#910000
0-"
0,"
0"
b1011011 <"
#915000
1-"
1,"
1"
#920000
0-"
0,"
0"
b1011100 <"
#925000
1-"
1,"
1"
#930000
0-"
0,"
0"
b1011101 <"
#935000
1-"
1,"
1"
#940000
0-"
0,"
0"
b1011110 <"
#945000
1-"
1,"
1"
#950000
0-"
0,"
0"
b1011111 <"
#955000
1-"
1,"
1"
#960000
0-"
0,"
0"
b1100000 <"
#965000
1-"
1,"
1"
#970000
0-"
0,"
0"
b1100001 <"
#975000
1-"
1,"
1"
#980000
0-"
0,"
0"
b1100010 <"
#985000
1-"
1,"
1"
#990000
0-"
0,"
0"
b1100011 <"
#995000
1-"
1,"
1"
#1000000
0-"
0,"
0"
b1100100 <"
#1005000
1-"
1,"
1"
#1010000
0-"
0,"
0"
b1100101 <"
#1015000
1-"
1,"
1"
#1020000
0-"
0,"
0"
b1100110 <"
#1025000
1-"
1,"
1"
#1030000
0-"
0,"
0"
b1100111 <"
#1035000
1-"
1,"
1"
#1040000
0-"
0,"
0"
b1101000 <"
#1045000
1-"
1,"
1"
#1050000
0-"
0,"
0"
b1101001 <"
#1055000
1-"
1,"
1"
#1060000
0-"
0,"
0"
b1101010 <"
#1065000
1-"
1,"
1"
#1070000
0-"
0,"
0"
b1101011 <"
#1075000
1-"
1,"
1"
#1080000
0-"
0,"
0"
b1101100 <"
#1085000
1-"
1,"
1"
#1090000
0-"
0,"
0"
b1101101 <"
#1095000
1-"
1,"
1"
0P!
#1100000
0-"
0,"
0"
b1101110 <"
#1105000
1-"
1,"
1"
#1110000
0-"
0,"
0"
b1101111 <"
#1115000
1-"
1,"
1"
#1120000
0-"
0,"
0"
b1110000 <"
#1125000
1-"
1,"
1"
0Q!
#1130000
0-"
0,"
0"
b1110001 <"
#1135000
1-"
1,"
1"
#1140000
0-"
0,"
0"
b1110010 <"
#1145000
1-"
1,"
1"
#1150000
0-"
0,"
0"
b1110011 <"
#1155000
1-"
1,"
1"
0R!
#1160000
0-"
0,"
0"
b1110100 <"
#1165000
1-"
1,"
1"
#1170000
0-"
0,"
0"
b1110101 <"
#1175000
1-"
1,"
1"
#1180000
0-"
0,"
0"
b1110110 <"
#1185000
1-"
1,"
1"
0S!
#1190000
0-"
0,"
0"
b1110111 <"
#1195000
1-"
1,"
1"
#1200000
0-"
0,"
0"
b1111000 <"
#1205000
1-"
1,"
1"
#1210000
0-"
0,"
0"
b1111001 <"
#1215000
1-"
1,"
1"
0T!
#1220000
0-"
0,"
0"
b1111010 <"
#1225000
1-"
1,"
1"
#1230000
0-"
0,"
0"
b1111011 <"
#1235000
1-"
1,"
1"
#1240000
0-"
0,"
0"
b1111100 <"
#1245000
1-"
1,"
1"
0U!
#1250000
0-"
0,"
0"
b1111101 <"
#1255000
1-"
1,"
1"
#1260000
0-"
0,"
0"
b1111110 <"
#1265000
1-"
1,"
1"
#1270000
0-"
0,"
0"
b1111111 <"
#1275000
1-"
1,"
1"
0V!
#1280000
0-"
0,"
0"
b10000000 <"
#1285000
1-"
1,"
1"
#1290000
0-"
0,"
0"
b10000001 <"
#1295000
1-"
1,"
1"
#1300000
0-"
0,"
0"
b10000010 <"
#1305000
1-"
1,"
1"
0W!
#1310000
0-"
0,"
0"
b10000011 <"
#1315000
1-"
1,"
1"
#1320000
0-"
0,"
0"
b10000100 <"
#1325000
1-"
1,"
1"
#1330000
0-"
0,"
0"
b10000101 <"
#1335000
1-"
1,"
1"
#1340000
0-"
0,"
0"
b10000110 <"
#1345000
1-"
1,"
1"
#1350000
0-"
0,"
0"
b10000111 <"
#1355000
1-"
1,"
1"
#1360000
0-"
0,"
0"
b10001000 <"
#1365000
1-"
1,"
1"
#1370000
0-"
0,"
0"
b10001001 <"
#1375000
1-"
1,"
1"
#1380000
0-"
0,"
0"
b10001010 <"
#1385000
1-"
1,"
1"
#1390000
0-"
0,"
0"
b10001011 <"
#1395000
1-"
1,"
1"
#1400000
0-"
0,"
0"
b10001100 <"
#1405000
1-"
1,"
1"
#1410000
0-"
0,"
0"
b10001101 <"
#1415000
1-"
1,"
1"
#1420000
0-"
0,"
0"
b10001110 <"
#1425000
1-"
1,"
1"
#1430000
0-"
0,"
0"
b10001111 <"
#1435000
1-"
1,"
1"
#1440000
0-"
0,"
0"
b10010000 <"
#1445000
1-"
1,"
1"
#1450000
0-"
0,"
0"
b10010001 <"
#1455000
1-"
1,"
1"
#1460000
0-"
0,"
0"
b10010010 <"
#1465000
1-"
1,"
1"
#1470000
0-"
0,"
0"
b10010011 <"
#1475000
1-"
1,"
1"
#1480000
0-"
0,"
0"
b10010100 <"
#1485000
1-"
1,"
1"
#1490000
0-"
0,"
0"
b10010101 <"
#1495000
1-"
1,"
1"
#1500000
0-"
0,"
0"
b10010110 <"
#1505000
1-"
1,"
1"
#1510000
0-"
0,"
0"
b10010111 <"
#1515000
1-"
1,"
1"
#1520000
0-"
0,"
0"
b10011000 <"
#1525000
1-"
1,"
1"
#1530000
0-"
0,"
0"
b10011001 <"
#1535000
1-"
1,"
1"
#1540000
0-"
0,"
0"
b10011010 <"
#1545000
1-"
1,"
1"
#1550000
0-"
0,"
0"
b10011011 <"
#1555000
1-"
1,"
1"
#1560000
0-"
0,"
0"
b10011100 <"
#1565000
1-"
1,"
1"
#1570000
0-"
0,"
0"
b10011101 <"
#1575000
1-"
1,"
1"
#1580000
0-"
0,"
0"
b10011110 <"
#1585000
1-"
1,"
1"
#1590000
0-"
0,"
0"
b10011111 <"
#1595000
1-"
1,"
1"
#1600000
0-"
0,"
0"
b10100000 <"
#1605000
1-"
1,"
1"
#1610000
0-"
0,"
0"
b10100001 <"
#1615000
1-"
1,"
1"
x+!
#1620000
0-"
0,"
0"
b10100010 <"
#1625000
1-"
1,"
1"
#1630000
0-"
0,"
0"
b10100011 <"
#1635000
1-"
1,"
1"
#1640000
0-"
0,"
0"
b10100100 <"
#1645000
1-"
1,"
1"
#1650000
0-"
0,"
0"
b10100101 <"
#1655000
1-"
1,"
1"
#1660000
0-"
0,"
0"
b10100110 <"
#1665000
1-"
1,"
1"
#1670000
0-"
0,"
0"
b10100111 <"
#1675000
1-"
1,"
1"
#1680000
0-"
0,"
0"
b10101000 <"
#1685000
1-"
1,"
1"
#1690000
0-"
0,"
0"
b10101001 <"
#1695000
1-"
1,"
1"
#1700000
0-"
0,"
0"
b10101010 <"
#1705000
1-"
1,"
1"
#1710000
0-"
0,"
0"
b10101011 <"
#1715000
1-"
1,"
1"
#1720000
0-"
0,"
0"
b10101100 <"
#1725000
1-"
1,"
1"
#1730000
0-"
0,"
0"
b10101101 <"
#1735000
1-"
1,"
1"
#1740000
0-"
0,"
0"
b10101110 <"
#1745000
1-"
1,"
1"
#1750000
0-"
0,"
0"
b10101111 <"
#1755000
1-"
1,"
1"
#1760000
0-"
0,"
0"
b10110000 <"
#1765000
1-"
1,"
1"
#1770000
0-"
0,"
0"
b10110001 <"
#1775000
1-"
1,"
1"
#1780000
0-"
0,"
0"
b10110010 <"
#1785000
1-"
1,"
1"
#1790000
0-"
0,"
0"
b10110011 <"
#1795000
1-"
1,"
1"
#1800000
0-"
0,"
0"
b10110100 <"
#1805000
1-"
1,"
1"
#1810000
0-"
0,"
0"
b10110101 <"
#1815000
1-"
1,"
1"
#1820000
0-"
0,"
0"
b10110110 <"
#1825000
1-"
1,"
1"
#1830000
0-"
0,"
0"
b10110111 <"
#1835000
1-"
1,"
1"
#1840000
0-"
0,"
0"
b10111000 <"
#1845000
1-"
1,"
1"
#1850000
0-"
0,"
0"
b10111001 <"
#1855000
1-"
1,"
1"
#1860000
0-"
0,"
0"
b10111010 <"
#1865000
1-"
1,"
1"
#1870000
0-"
0,"
0"
b10111011 <"
#1875000
1-"
1,"
1"
#1880000
0-"
0,"
0"
b10111100 <"
#1885000
1-"
1,"
1"
#1890000
0-"
0,"
0"
b10111101 <"
#1895000
1-"
1,"
1"
