Synthesis/DFFR.vcd
$date
    Oct 23, 2024  15:30:23
$end
$version
    TOOL:	xmsim	23.03-s007
$end
$timescale
    1 ps
$end

$scope module tb_DFFR $end
$var reg       1 !    RST $end
$var reg       1 "    CK $end
$var reg       1 #    D $end
$var wire      1 $    Q  $end
$var wire      1 %    QN  $end

$scope module uut $end
$var wire      1 &    RST  $end
$var wire      1 '    CK  $end
$var wire      1 (    D  $end
$var wire      1 $    Q  $end
$var wire      1 %    QN  $end
$var wire      1 )    n_0  $end

$scope module g6 $end
$var wire      1 )    Y  $end
$var wire      1 &    A  $end
$var supply1   1 *    VPWR  $end
$var supply0   1 +    VGND  $end
$var supply1   1 ,    VPB  $end
$var supply0   1 -    VNB  $end
$var wire      1 .    not0_out_Y  $end
$upscope $end


$scope module q_reg_reg $end
$var wire      1 $    Q  $end
$var wire      1 %    Q_N  $end
$var wire      1 '    CLK  $end
$var wire      1 (    D  $end
$var wire      1 )    RESET_B  $end
$var supply1   1 /    VPWR  $end
$var supply0   1 0    VGND  $end
$var supply1   1 1    VPB  $end
$var supply0   1 2    VNB  $end
$var wire      1 3    buf_Q  $end
$var wire      1 4    RESET  $end
$var reg       1 5    notifier $end
$var wire      1 (    D_delayed  $end
$var wire      1 )    RESET_B_delayed  $end
$var wire      1 '    CLK_delayed  $end
$var wire      1 6    awake  $end
$var wire      1 7    cond0  $end
$var wire      1 8    cond1  $end
$upscope $end

$upscope $end

$upscope $end

$enddefinitions $end
$dumpvars
0!
0"
0#
x$
x%
0&
0'
0(
1)
1*
0+
1,
0-
1.
1/
00
11
02
x3
04
x5
z6
x7
x8
$end
#5000
1"
1'
03
1%
0$
#10000
1!
0"
0'
1&
0.
0)
14
07
08
#15000
1"
1'
#20000
0!
1#
0"
0'
1(
0&
1.
1)
04
x7
x8
#25000
1"
1'
13
0%
1$
#30000
0#
0"
0'
0(
#35000
1"
1'
03
1%
0$
#40000
1!
0"
0'
1&
0.
0)
14
07
08
#45000
1"
1'
#50000
0!
0"
0'
0&
1.
1)
04
x7
x8
