Fabric/configuration_chain/latest/k4_N4_tileable_40nm/and2_latch/MIN_ROUTE_CHAN_WIDTH/and2_latch_formal.vcd
$date
	Mon Oct  7 19:17:32 2024
$end
$version
	Icarus Verilog
$end
$timescale
	1ps
$end
$scope module and2_latch_autocheck_top_tb $end
$var wire 1 ! __config_all_done__ $end
$var wire 1 " __op_clock__ $end
$var wire 1 # __prog_clock__ $end
$var wire 1 $ clk $end
$var wire 32 % gfpga_pad_GPIO_PAD [0:31] $end
$var wire 1 & prog_clk $end
$var wire 1 ' reset $end
$var wire 1 ( set $end
$var wire 1 ) d_fpga $end
$var wire 1 * d_benchmark $end
$var wire 1 + ccff_tail $end
$var wire 1 , c_fpga $end
$var wire 1 - c_benchmark $end
$var reg 1 . __config_done__ $end
$var reg 1 / __greset__ $end
$var reg 1 0 __gset__ $end
$var reg 1 1 __op_clock___reg__ $end
$var reg 1 2 __prog_clock___reg__ $end
$var reg 1 3 __prog_reset__ $end
$var reg 1 4 __prog_set_ $end
$var reg 1 5 a_shared_input $end
$var reg 1 6 b_shared_input $end
$var reg 11 7 bit_index [10:0] $end
$var reg 1 8 c_flag $end
$var reg 1 9 ccff_head $end
$var reg 1 : d_flag $end
$var reg 11 ; ibit [10:0] $end
$var reg 1 < sim_start $end
$var reg 1 = skip_bits $end
$var integer 32 > nb_error [31:0] $end
$upscope $end
$enddefinitions $end
#0
$dumpvars
b1 >
0=
1<
b1000001101 ;
0:
09
08
b0 7
16
05
14
13
02
01
00
1/
0.
0-
x,
x+
x*
x)
0(
1'
0&
bx %
0$
0#
0"
0!
$end
#5000
12
#10000
b1 7
19
02
04
03
#15000
1&
1#
12
#20000
b10 7
0&
0#
02
#25000
1&
1#
12
#30000
b11 7
0&
0#
02
#35000
1&
1#
12
#40000
b100 7
09
0&
0#
02
#45000
1&
1#
12
#50000
b101 7
0&
0#
02
#55000
1&
1#
12
#60000
b110 7
0&
0#
02
#65000
1&
1#
12
#70000
b111 7
0&
0#
02
#75000
1&
1#
12
#80000
b1000 7
0&
0#
02
#85000
1&
1#
12
#90000
b1001 7
0&
0#
02
#95000
1&
1#
12
#100000
b1010 7
0&
0#
02
#105000
1&
1#
12
#110000
b1011 7
0&
0#
02
#115000
1&
1#
12
#120000
b1100 7
0&
0#
02
#125000
1&
1#
12
#130000
b1101 7
0&
0#
02
#135000
1&
1#
12
#140000
b1110 7
19
0&
0#
02
#145000
1&
1#
12
#150000
b1111 7
0&
0#
02
#155000
1&
1#
12
#160000
b10000 7
09
0&
0#
02
#165000
1&
1#
12
#170000
b10001 7
0&
0#
02
#175000
1&
1#
12
#180000
b10010 7
0&
0#
02
#185000
1&
1#
12
#190000
b10011 7
19
0&
0#
02
#195000
1&
1#
12
#200000
b10100 7
09
0&
0#
02
#205000
1&
1#
12
#210000
b10101 7
0&
0#
02
#215000
1&
1#
12
#220000
b10110 7
0&
0#
02
#225000
1&
1#
12
#230000
b10111 7
0&
0#
02
#235000
1&
1#
12
#240000
b11000 7
0&
0#
02
#245000
1&
1#
12
#250000
b11001 7
0&
0#
02
#255000
1&
1#
12
#260000
b11010 7
0&
0#
02
#265000
1&
1#
12
#270000
b11011 7
0&
0#
02
#275000
1&
1#
12
#280000
b11100 7
0&
0#
02
#285000
1&
1#
12
#290000
b11101 7
0&
0#
02
#295000
1&
1#
12
#300000
b11110 7
0&
0#
02
#305000
1&
1#
12
#310000
b11111 7
0&
0#
02
#315000
1&
1#
12
#320000
b100000 7
0&
0#
02
#325000
1&
1#
12
#330000
b100001 7
0&
0#
02
#335000
1&
1#
12
#340000
b100010 7
0&
0#
02
#345000
1&
1#
12
#350000
b100011 7
0&
0#
02
#355000
1&
1#
12
#360000
b100100 7
0&
0#
02
#365000
1&
1#
12
#370000
b100101 7
0&
0#
02
#375000
1&
1#
12
#380000
b100110 7
0&
0#
02
#385000
1&
1#
12
#390000
b100111 7
0&
0#
02
#395000
1&
1#
12
#400000
b101000 7
0&
0#
02
#405000
1&
1#
12
#410000
b101001 7
0&
0#
02
#415000
1&
1#
12
#420000
b101010 7
0&
0#
02
#425000
1&
1#
12
#430000
b101011 7
0&
0#
02
#435000
1&
1#
12
#440000
b101100 7
0&
0#
02
#445000
1&
1#
12
#450000
b101101 7
0&
0#
02
#455000
1&
1#
12
#460000
b101110 7
0&
0#
02
#465000
1&
1#
12
#470000
b101111 7
0&
0#
02
#475000
1&
1#
12
#480000
b110000 7
0&
0#
02
#485000
1&
1#
12
#490000
b110001 7
0&
0#
02
#495000
1&
1#
12
#500000
b110010 7
0&
0#
02
#505000
1&
1#
12
#510000
b110011 7
0&
0#
02
#515000
1&
1#
12
#520000
b110100 7
0&
0#
02
#525000
1&
1#
12
#530000
b110101 7
0&
0#
02
#535000
1&
1#
12
#540000
b110110 7
0&
0#
02
#545000
1&
1#
12
#550000
b110111 7
0&
0#
02
#555000
1&
1#
12
#560000
b111000 7
0&
0#
02
#565000
1&
1#
12
#570000
b111001 7
0&
0#
02
#575000
1&
1#
12
#580000
b111010 7
0&
0#
02
#585000
1&
1#
12
#590000
b111011 7
0&
0#
02
#595000
1&
1#
12
#600000
b111100 7
0&
0#
02
#605000
1&
1#
12
#610000
b111101 7
0&
0#
02
#615000
1&
1#
12
#620000
b111110 7
0&
0#
02
#625000
1&
1#
12
#630000
b111111 7
0&
0#
02
#635000
1&
1#
12
#640000
b1000000 7
0&
0#
02
#645000
1&
1#
12
#650000
b1000001 7
19
0&
0#
02
#655000
1&
1#
12
#660000
b1000010 7
09
0&
0#
02
#665000
1&
1#
12
#670000
b1000011 7
0&
0#
02
#675000
1&
1#
12
#680000
b1000100 7
0&
0#
02
#685000
1&
1#
12
#690000
b1000101 7
0&
0#
02
#695000
1&
1#
12
#700000
b1000110 7
0&
0#
02
#705000
1&
1#
12
#710000
b1000111 7
0&
0#
02
#715000
1&
1#
12
#720000
b1001000 7
0&
0#
02
#725000
1&
1#
12
#730000
b1001001 7
0&
0#
02
#735000
1&
1#
12
#740000
b1001010 7
0&
0#
02
#745000
1&
1#
12
#750000
b1001011 7
0&
0#
02
#755000
1&
1#
12
#760000
b1001100 7
19
0&
0#
02
#765000
1&
1#
12
#770000
b1001101 7
09
0&
0#
02
#775000
1&
1#
12
#780000
b1001110 7
19
0&
0#
02
#785000
1&
1#
12
#790000
b1001111 7
09
0&
0#
02
#795000
1&
1#
12
#800000
b1010000 7
19
0&
0#
02
#805000
1&
1#
12
#810000
b1010001 7
09
0&
0#
02
#815000
1&
1#
12
#820000
b1010010 7
19
0&
0#
02
#825000
1&
1#
12
#830000
b1010011 7
0&
0#
02
#835000
1&
1#
12
#840000
b1010100 7
0&
0#
02
#845000
1&
1#
12
#850000
b1010101 7
09
0&
0#
02
#855000
1&
1#
12
#860000
b1010110 7
0&
0#
02
#865000
1&
1#
12
#870000
b1010111 7
0&
0#
02
#875000
1&
1#
12
#880000
b1011000 7
0&
0#
02
#885000
1&
1#
12
#890000
b1011001 7
0&
0#
02
#895000
1&
1#
12
#900000
b1011010 7
0&
0#
02
#905000
1&
1#
12
#910000
b1011011 7
0&
0#
02
#915000
1&
1#
12
#920000
b1011100 7
0&
0#
02
#925000
1&
1#
12
#930000
b1011101 7
19
0&
0#
02
#935000
1&
1#
12
#940000
b1011110 7
0&
0#
02
#945000
1&
1#
12
#950000
b1011111 7
0&
0#
02
#955000
1&
1#
12
#960000
b1100000 7
0&
0#
02
#965000
1&
1#
12
#970000
b1100001 7
0&
0#
02
#975000
1&
1#
12
#980000
b1100010 7
0&
0#
02
#985000
1&
1#
12
#990000
b1100011 7
0&
0#
02
#995000
1&
1#
12
#1000000
b1100100 7
0&
0#
02
#1005000
1&
1#
12
#1010000
b1100101 7
09
0&
0#
02
#1015000
1&
1#
12
#1020000
b1100110 7
0&
0#
02
#1025000
1&
1#
12
#1030000
b1100111 7
0&
0#
02
#1035000
1&
1#
12
#1040000
b1101000 7
0&
0#
02
#1045000
1&
1#
12
#1050000
b1101001 7
0&
0#
02
#1055000
1&
1#
12
#1060000
b1101010 7
0&
0#
02
#1065000
1&
1#
12
#1070000
b1101011 7
0&
0#
02
#1075000
1&
1#
12
#1080000
b1101100 7
0&
0#
02
#1085000
1&
1#
12
#1090000
b1101101 7
0&
0#
02
#1095000
1&
1#
12
#1100000
b1101110 7
0&
0#
02
#1105000
1&
1#
12
#1110000
b1101111 7
0&
0#
02
#1115000
1&
1#
12
#1120000
b1110000 7
0&
0#
02
#1125000
1&
1#
12
#1130000
b1110001 7
0&
0#
02
#1135000
1&
1#
12
#1140000
b1110010 7
0&
0#
02
#1145000
1&
1#
12
#1150000
b1110011 7
0&
0#
02
#1155000
1&
1#
12
#1160000
b1110100 7
0&
0#
02
#1165000
1&
1#
12
#1170000
b1110101 7
0&
0#
02
#1175000
1&
1#
12
#1180000
b1110110 7
0&
0#
02
#1185000
1&
1#
12
#1190000
b1110111 7
0&
0#
02
#1195000
1&
1#
12
#1200000
b1111000 7
0&
0#
02
#1205000
1&
1#
12
#1210000
b1111001 7
0&
0#
02
#1215000
1&
1#
12
#1220000
b1111010 7
0&
0#
02
#1225000
1&
1#
12
#1230000
b1111011 7
0&
0#
02
#1235000
1&
1#
12
#1240000
b1111100 7
0&
0#
02
#1245000
1&
1#
12
#1250000
b1111101 7
0&
0#
02
#1255000
1&
1#
12
#1260000
b1111110 7
0&
0#
02
#1265000
1&
1#
12
#1270000
b1111111 7
0&
0#
02
#1275000
1&
1#
12
#1280000
b10000000 7
0&
0#
02
#1285000
1&
1#
12
#1290000
b10000001 7
0&
0#
02
#1295000
1&
1#
12
#1300000
b10000010 7
0&
0#
02
#1305000
1&
1#
12
#1310000
b10000011 7
0&
0#
02
#1315000
1&
1#
12
#1320000
b10000100 7
0&
0#
02
#1325000
1&
1#
12
#1330000
b10000101 7
0&
0#
02
#1335000
1&
1#
12
#1340000
b10000110 7
0&
0#
02
#1345000
1&
1#
12
#1350000
b10000111 7
0&
0#
02
#1355000
1&
1#
12
#1360000
b10001000 7
0&
0#
02
#1365000
1&
1#
12
#1370000
b10001001 7
0&
0#
02
#1375000
1&
1#
12
#1380000
b10001010 7
19
0&
0#
02
#1385000
1&
1#
12
#1390000
b10001011 7
0&
0#
02
#1395000
1&
1#
12
#1400000
b10001100 7
09
0&
0#
02
#1405000
1&
1#
12
#1410000
b10001101 7
0&
0#
02
#1415000
1&
1#
12
#1420000
b10001110 7
0&
0#
02
#1425000
1&
1#
12
#1430000
b10001111 7
19
0&
0#
02
#1435000
1&
1#
12
#1440000
b10010000 7
09
0&
0#
02
#1445000
1&
1#
12
#1450000
b10010001 7
19
0&
0#
02
#1455000
1&
1#
12
#1460000
b10010010 7
09
0&
0#
02
#1465000
1&
1#
12
#1470000
b10010011 7
0&
0#
02
#1475000
1&
1#
12
#1480000
b10010100 7
0&
0#
02
#1485000
bx0xxxxxxxxxxxxxxx %
1&
1#
12
#1490000
b10010101 7
0&
0#
02
#1495000
bx00xxxxxxxxxxxxxx %
1&
1#
12
#1500000
b10010110 7
0&
0#
02
#1505000
bx000xxxxxxxxxxxxx %
1&
1#
12
#1510000
b10010111 7
0&
0#
02
#1515000
bx0000xxxxxxxxxxxx %
1&
1#
12
#1520000
b10011000 7
0&
0#
02
#1525000
bx00000xxxxxxxxxxx %
1&
1#
12
#1530000
b10011001 7
0&
0#
02
#1535000
z,
bx00000zxxxxxxxxxx %
1&
1#
12
#1540000
b10011010 7
0&
0#
02
#1545000
bx00000z0xxxxxxxxx %
1&
1#
12
#1550000
b10011011 7
0&
0#
02
#1555000
bx00000z00xxxxxxxx %
1&
1#
12
#1560000
b10011100 7
0&
0#
02
#1565000
0,
bx1xxxxxxx00000000xxxxxxxx %
1&
1#
12
#1570000
b10011101 7
0&
0#
02
#1575000
bx10xxxxxx00000000xxxxxxxx %
1&
1#
12
#1580000
b10011110 7
0&
0#
02
#1585000
0,
z)
bx10zxxxxx00000000xxxxxxxx %
1&
1#
12
#1590000
b10011111 7
0&
0#
02
#1595000
0,
bx0z0xxxx00000000xxxxxxxx %
1&
1#
12
#1600000
b10100000 7
0&
0#
02
#1605000
0,
bxz00xxx00000000xxxxxxxx %
1&
1#
12
#1610000
b10100001 7
19
0&
0#
02
#1615000
x)
bx000xx00000000xxxxxxxx %
1&
1#
12
#1620000
b10100010 7
0&
0#
02
#1625000
bx000x00000000xxxxxxxx %
1&
1#
12
#1630000
b10100011 7
09
0&
0#
02
#1635000
bx00000000000xxxxxxxx %
1&
1#
12
#1640000
b10100100 7
0&
0#
02
#1645000
b0xxxxxxxxxxxxx0000000000xxxxxxxx %
1&
1#
12
#1650000
b10100101 7
0&
0#
02
#1655000
b0xxxxxxxxxxxxx000000000xxxxxxxx %
1&
1#
12
#1660000
b10100110 7
0&
0#
02
#1665000
z,
b0xxxxxxxxxxxxx00000z00xxxxxxxx %
1&
1#
12
#1670000
b10100111 7
0&
0#
02
#1675000
bx000xxxxxxxxxxxx00000z00xxxxxxxx %
1&
1#
12
#1680000
b10101000 7
0&
0#
02
#1685000
0,
bx000xxxxxxxxxxx00000000xxxxxxxx %
1&
1#
12
#1690000
b10101001 7
0&
0#
02
#1695000
bx000xx1xxxxxxx00000000xxxxxxxx %
1&
1#
12
#1700000
b10101010 7
0&
0#
02
#1705000
bx000x10xxxxxx00000000xxxxxxxx %
1&
1#
12
#1710000
b10101011 7
0&
0#
02
#1715000
z,
z)
bx000x0zxxxxx00000z00xxxxxxxx %
1&
1#
12
#1720000
b10101100 7
0&
0#
02
#1725000
0,
bx00xxz0xxxx00000000xxxxxxxx %
1&
1#
12
#1730000
b10101101 7
0&
0#
02
#1735000
x)
bx0xxx00xxx00000000xxxxxxxx %
1&
1#
12
#1740000
b10101110 7
0&
0#
02
#1745000
bx1xxx00xx00000000xxxxxxxx %
1&
1#
12
#1750000
b10101111 7
0&
0#
02
#1755000
bx0xxx00x00000000xxxxxxxx %
1&
1#
12
#1760000
b10110000 7
0&
0#
02
#1765000
z)
bxzxxx0000000000xxxxxxxx %
1&
1#
12
#1770000
b10110001 7
0&
0#
02
#1775000
x)
b0xxxxxxxxxx0xxx000000000xxxxxxxx %
1&
1#
12
#1780000
b10110010 7
0&
0#
02
#1785000
b0xxxxxxxxxx0xxx00000000xxxxxxxx %
1&
1#
12
#1790000
b10110011 7
0&
0#
02
#1795000
bx00xxxxxxxxxx0xx00000000xxxxxxxx %
1&
1#
12
#1800000
b10110100 7
0&
0#
02
#1805000
bx00xxxxxxxxxx0x00000000xxxxxxxx %
1&
1#
12
#1810000
b10110101 7
0&
0#
02
#1815000
bx00xxxxxxxxxx000000000xxxxxxxx %
1&
1#
12
#1820000
b10110110 7
0&
0#
02
#1825000
b0xxx00xxxxxxxxxx00000000xxxxxxxx %
1&
1#
12
#1830000
b10110111 7
0&
0#
02
#1835000
bx0xxx00xxxxxxxxx00000000xxxxxxxx %
1&
1#
12
#1840000
b10111000 7
0&
0#
02
#1845000
bx0xxx00xxxxxxxx00000000xxxxxxxx %
1&
1#
12
#1850000
b10111001 7
0&
0#
02
#1855000
bx0xxx0xxxxxxxx00000000xxxxxxxx %
1&
1#
12
#1860000
b10111010 7
0&
0#
02
#1865000
bx0xxxxxxxxxxx00000000xxxxxxxx %
1&
1#
12
#1870000
b10111011 7
0&
0#
02
#1875000
bx0xxxxxxxxxx00000000xxxxxxxx %
1&
1#
12
#1880000
b10111100 7
0&
0#
02
#1885000
bx0xxxxxxxxx00000000xxxxxxxx %
1&
1#
12
#1890000
b10111101 7
0&
0#
02
#1895000
bx0xxxxxxxx00000000xxxxxxxx %
1&
1#
12
#1900000
b10111110 7
0&
0#
02
#1905000
bx0000000xxxxxxxx %
1&
1#
12
#1910000
b10111111 7
0&
0#
02
#1915000
bx00000000xxxxxxxx %
1&
1#
12
#1920000
b11000000 7
0&
0#
02
#1925000
bx00000000xxxxxxxx %
1&
1#
12
#1930000
b11000001 7
0&
0#
02
#1935000
bx0x000000xxxxxxxx %
1&
1#
12
#1940000
b11000010 7
0&
0#
02
#1945000
bx00000000xxxxxxxx %
1&
1#
12
#1950000
b11000011 7
0&
0#
02
#1955000
bx00000000xxxxxxxx %
1&
1#
12
#1960000
b11000100 7
0&
0#
02
#1965000
bx00x00000xxxxxxxx %
1&
1#
12
#1970000
b11000101 7
0&
0#
02
#1975000
bx00000000xxxxxxxx %
1&
1#
12
#1980000
b11000110 7
0&
0#
02
#1985000
bx000x0000xxxxxxxx %
1&
1#
12
#1990000
b11000111 7
0&
0#
02
#1995000
bx000x0000xxxxxxxx %
1&
1#
12
#2000000
b11001000 7
0&
0#
02
#2005000
bx00000000xxxxxxxx %
1&
1#
12
#2010000
b11001001 7
0&
0#
02
#2015000
bx00000000xxxxxxxx %
1&
1#
12
#2020000
b11001010 7
0&
0#
02
#2025000
bx0000x000xxxxxxxx %
1&
1#
12
#2030000
b11001011 7
0&
0#
02
#2035000
bx00000000xxxxxxxx %
1&
1#
12
#2040000
b11001100 7
0&
0#
02
#2045000
1,
bx00000100xxxxxxxx %
1&
1#
12
#2050000
b11001101 7
0&
0#
02
#2055000
0,
bx00000000xxxxxxxx %
1&
1#
12
#2060000
b11001110 7
0&
0#
02
#2065000
0,
bx00000000xxxxxxxx %
1&
1#
12
#2070000
b11001111 7
0&
0#
02
#2075000
bx00000000xxxxxxxx %
1&
1#
12
#2080000
b11010000 7
0&
0#
02
#2085000
bx00000000xxxxxxxx %
1&
1#
12
#2090000
b11010001 7
0&
0#
02
#2095000
bx00000000xxxxxxxx %
1&
1#
12
#2100000
b11010010 7
0&
0#
02
#2105000
bx00000000xxxxxxxx %
1&
1#
12
#2110000
b11010011 7
0&
0#
02
#2115000
bx00000000xxxxxxxx %
1&
1#
12
#2120000
b11010100 7
0&
0#
02
#2125000
bx0000x000xxxxxxxx %
1&
1#
12
#2130000
b11010101 7
0&
0#
02
#2135000
bx00000000xxxxxxxx %
1&
1#
12
#2140000
b11010110 7
0&
0#
02
#2145000
bx0000x000xxxxxxxx %
1&
1#
12
#2150000
b11010111 7
0&
0#
02
#2155000
0,
bx00000000xxxxxxxx %
1&
1#
12
#2160000
b11011000 7
0&
0#
02
#2165000
0,
bx00000000xxxxxxxx %
1&
1#
12
#2170000
b11011001 7
0&
0#
02
#2175000
z,
bx00000z00xxxxxxxx %
1&
1#
12
#2180000
b11011010 7
0&
0#
02
#2185000
0,
bx0000x000xxxxxxxx %
1&
1#
12
#2190000
b11011011 7
0&
0#
02
#2195000
0,
bx00000000xxxxxxxx %
1&
1#
12
#2200000
b11011100 7
0&
0#
02
#2205000
0,
bx1xxxxxxx00000000xxxxxxxx %
1&
1#
12
#2210000
b11011101 7
0&
0#
02
#2215000
0,
bx0xxxxxx00000000xxxxxxxx %
1&
1#
12
#2220000
b11011110 7
0&
0#
02
#2225000
z)
bxzxxxxx00000000xxxxxxxx %
1&
1#
12
#2230000
b11011111 7
0&
0#
02
#2235000
0,
x)
bx0xxxx00000000xxxxxxxx %
1&
1#
12
#2240000
b11100000 7
0&
0#
02
#2245000
0,
bx0xxx00000000xxxxxxxx %
1&
1#
12
#2250000
b11100001 7
0&
0#
02
#2255000
0,
bx0xx00000000xxxxxxxx %
1&
1#
12
#2260000
b11100010 7
0&
0#
02
#2265000
bx0x00000000xxxxxxxx %
1&
1#
12
#2270000
b11100011 7
0&
0#
02
#2275000
bx000000000xxxxxxxx %
1&
1#
12
#2280000
b11100100 7
0&
0#
02
#2285000
z,
b0xxxxxxxxxxxxxxx00000z00xxxxxxxx %
1&
1#
12
#2290000
b11100101 7
0&
0#
02
#2295000
0,
bx0xxxxxxxxxxxxxx00000000xxxxxxxx %
1&
1#
12
#2300000
b11100110 7
0&
0#
02
#2305000
z,
bx0xxxxxxxxxxxxx00000z00xxxxxxxx %
1&
1#
12
#2310000
b11100111 7
0&
0#
02
#2315000
0,
bx0xxxx1xxxxxxx00000000xxxxxxxx %
1&
1#
12
#2320000
b11101000 7
0&
0#
02
#2325000
z,
bx0xxxx0xxxxxx00000z00xxxxxxxx %
1&
1#
12
#2330000
b11101001 7
0&
0#
02
#2335000
0,
z)
bx0xx1xzxxxxx00000000xxxxxxxx %
1&
1#
12
#2340000
b11101010 7
0&
0#
02
#2345000
z,
x)
bx0xx0x0xxxx00000z00xxxxxxxx %
1&
1#
12
#2350000
b11101011 7
0&
0#
02
#2355000
z)
bx01xzx0xxx00000z00xxxxxxxx %
1&
1#
12
#2360000
b11101100 7
0&
0#
02
#2365000
x)
bx0x0x0xx00000z00xxxxxxxx %
1&
1#
12
#2370000
b11101101 7
0&
0#
02
#2375000
0,
z)
bx1xzx0x0x00000000xxxxxxxx %
1&
1#
12
#2380000
b11101110 7
0&
0#
02
#2385000
x)
bx10x0x0x000000000xxxxxxxx %
1&
1#
12
#2390000
b11101111 7
19
0&
0#
02
#2395000
0,
z)
b0xxxxxxx10zx0x0x00000000xxxxxxxx %
1&
1#
12
#2400000
b11110000 7
09
0&
0#
02
#2405000
0,
bx0xxxxxxx0z0x0x000000000xxxxxxxx %
1&
1#
12
#2410000
b11110001 7
0&
0#
02
#2415000
0,
b0x0xxxxxxxz00x0x00000000xxxxxxxx %
1&
1#
12
#2420000
b11110010 7
19
0&
0#
02
#2425000
x)
bx0x0xxxxxxx000x000000000xxxxxxxx %
1&
1#
12
#2430000
b11110011 7
09
0&
0#
02
#2435000
b0x0x0xxxxxxx000x000000x0xxxxxxxx %
1&
1#
12
#2440000
b11110100 7
19
0&
0#
02
#2445000
bx0x0x0xxxxxxx00000000000xxxxxxxx %
1&
1#
12
#2450000
b11110101 7
09
0&
0#
02
#2455000
z,
b0x0x0x0xxxxxxx0000000z00xxxxxxxx %
1&
1#
12
#2460000
b11110110 7
0&
0#
02
#2465000
b0x0x0x0xxxxxxx000000z00xxxxxxxx %
1&
1#
12
#2470000
b11110111 7
19
0&
0#
02
#2475000
b0x0x0xxxxxxxxx00000z00xxxxxxxx %
1&
1#
12
#2480000
b11111000 7
09
0&
0#
02
#2485000
bx000x0x01xxxxxxx00000z00xxxxxxxx %
1&
1#
12
#2490000
b11111001 7
0&
0#
02
#2495000
bx000x0x10xxxxxx00000z00xxxxxxxx %
1&
1#
12
#2500000
b11111010 7
0&
0#
02
#2505000
z)
bx000x010zxxxxx00000z00xxxxxxxx %
1&
1#
12
#2510000
b11111011 7
19
0&
0#
02
#2515000
bx000x10z0xxxx00000z00xxxxxxxx %
1&
1#
12
#2520000
b11111100 7
09
0&
0#
02
#2525000
bx00010z00xxx00000z00xxxxxxxx %
1&
1#
12
#2530000
b11111101 7
0&
0#
02
#2535000
0,
bx0010z000xx00000000xxxxxxxx %
1&
1#
12
#2540000
b11111110 7
0&
0#
02
#2545000
bx010z0000x00000000xxxxxxxx %
1&
1#
12
#2550000
b11111111 7
19
0&
0#
02
#2555000
bx10z0000000000000xxxxxxxx %
1&
1#
12
#2560000
b100000000 7
09
0&
0#
02
#2565000
b0xxxxxxxx0z0000000000000xxxxxxxx %
1&
1#
12
#2570000
b100000001 7
0&
0#
02
#2575000
b0xxxxxxxxz0000000000000xxxxxxxx %
1&
1#
12
#2580000
b100000010 7
0&
0#
02
#2585000
x)
b0xxxxxxxx0000000000000xxxxxxxx %
1&
1#
12
#2590000
b100000011 7
19
0&
0#
02
#2595000
b0xxxxxxxx0000000000000xxxxxxx %
1&
1#
12
#2600000
b100000100 7
0&
0#
02
#2605000
b0xxxxxxxx0000000000000xxxxxx %
1&
1#
12
#2610000
b100000101 7
0&
0#
02
#2615000
b0xxxxxxxx0000000000000xxxxx %
1&
1#
12
#2620000
b100000110 7
0&
0#
02
#2625000
b0xxxxxxxx0000000000000xxxx %
1&
1#
12
#2630000
b100000111 7
0&
0#
02
#2635000
b0xxxxxxxx0000000000000xxx %
1&
1#
12
#2640000
b100001000 7
0&
0#
02
#2645000
bx0000000xxxxxxxx00000000000000xx %
1&
1#
12
#2650000
b100001001 7
0&
0#
02
#2655000
bx000000xxxxxxxx000000000000000x %
1&
1#
12
#2660000
b100001010 7
0&
0#
02
#2665000
bx00000xxxxxxxx0000000000000000 %
1&
1#
12
#2670000
b100001011 7
09
0&
0#
02
#2675000
bx0000xxxxxxxx0000000000000000 %
1&
1#
12
#2680000
b100001100 7
0&
0#
02
#2685000
bx000xxxxxxxx0000000000000000 %
1&
1#
12
#2690000
b100001101 7
0&
0#
02
#2695000
bx00xxxxxxxx0000000000000000 %
1&
1#
12
#2700000
b100001110 7
0&
0#
02
#2705000
bx0xxxxxxxx0000000000000000 %
1&
1#
12
#2710000
b100001111 7
0&
0#
02
#2715000
bx0000000000000000 %
1&
1#
12
#2720000
b100010000 7
0&
0#
02
#2725000
bx0x00000000000000 %
1&
1#
12
#2730000
b100010001 7
0&
0#
02
#2735000
bx0000000000000000 %
1&
1#
12
#2740000
b100010010 7
0&
0#
02
#2745000
bx0000000000000000 %
1&
1#
12
#2750000
b100010011 7
0&
0#
02
#2755000
bx0000000000000000 %
1&
1#
12
#2760000
b100010100 7
0&
0#
02
#2765000
bx000x000000000000 %
1&
1#
12
#2770000
b100010101 7
0&
0#
02
#2775000
bx0000000000000000 %
1&
1#
12
#2780000
b100010110 7
0&
0#
02
#2785000
0,
bx0000000000000000 %
1&
1#
12
#2790000
b100010111 7
0&
0#
02
#2795000
0,
bx0000000000000000 %
1&
1#
12
#2800000
b100011000 7
0&
0#
02
#2805000
0,
bx0000000000000000 %
1&
1#
12
#2810000
b100011001 7
0&
0#
02
#2815000
bx0000000000000000 %
1&
1#
12
#2820000
b100011010 7
0&
0#
02
#2825000
0,
bx0000000000000000 %
1&
1#
12
#2830000
b100011011 7
0&
0#
02
#2835000
1,
bx0000010000000000 %
1&
1#
12
#2840000
b100011100 7
0&
0#
02
#2845000
0,
bx0000000000000000 %
1&
1#
12
#2850000
b100011101 7
0&
0#
02
#2855000
0,
bx0000000000000000 %
1&
1#
12
#2860000
b100011110 7
0&
0#
02
#2865000
0,
bx0000000000000000 %
1&
1#
12
#2870000
b100011111 7
0&
0#
02
#2875000
bx0000000000000000 %
1&
1#
12
#2880000
b100100000 7
0&
0#
02
#2885000
bx0000000000000000 %
1&
1#
12
#2890000
b100100001 7
0&
0#
02
#2895000
bx0000000000000000 %
1&
1#
12
#2900000
b100100010 7
0&
0#
02
#2905000
z,
bx00000z0000000000 %
1&
1#
12
#2910000
b100100011 7
0&
0#
02
#2915000
bx00000z0000000000 %
1&
1#
12
#2920000
b100100100 7
0&
0#
02
#2925000
0,
bx0000000000000000 %
1&
1#
12
#2930000
b100100101 7
0&
0#
02
#2935000
bx1xxxxxxx0000000000000000 %
1&
1#
12
#2940000
b100100110 7
0&
0#
02
#2945000
bx10xxxxxx0000000000000000 %
1&
1#
12
#2950000
b100100111 7
0&
0#
02
#2955000
z,
z)
bx0zxxxxx00000z0000000000 %
1&
1#
12
#2960000
b100101000 7
0&
0#
02
#2965000
0,
bxz0xxxx0000000000000000 %
1&
1#
12
#2970000
b100101001 7
0&
0#
02
#2975000
z,
x)
bx00xxx00000z0000000000 %
1&
1#
12
#2980000
b100101010 7
0&
0#
02
#2985000
0,
bx1xxx00xx0000000000000000 %
1&
1#
12
#2990000
b100101011 7
0&
0#
02
#2995000
bx0xxx00x0000000000000000 %
1&
1#
12
#3000000
b100101100 7
0&
0#
02
#3005000
z)
bx1xzxxx0000000000x0000000 %
1&
1#
12
#3010000
b100101101 7
0&
0#
02
#3015000
0,
x)
b0xxxxxxxx0x0xxx00000000000000000 %
1&
1#
12
#3020000
b100101110 7
0&
0#
02
#3025000
0,
z)
b0xxxxxxxxzx0xxx0000000000000000 %
1&
1#
12
#3030000
b100101111 7
0&
0#
02
#3035000
0,
x)
bx00xxxxxxxx0x0xx000000x000000000 %
1&
1#
12
#3040000
b100110000 7
0&
0#
02
#3045000
bx00xxxxxxxx0x0x000000000x000000 %
1&
1#
12
#3050000
b100110001 7
0&
0#
02
#3055000
bx00xxxxxxxx0x00000000000000000 %
1&
1#
12
#3060000
b100110010 7
0&
0#
02
#3065000
b0xxx00xxxxxxxx0x0000000x00000000 %
1&
1#
12
#3070000
b100110011 7
0&
0#
02
#3075000
bx0xxx00xxxxxxxx00000000000x00000 %
1&
1#
12
#3080000
b100110100 7
0&
0#
02
#3085000
b0x0xxx00xxxxxxxx0000000000000000 %
1&
1#
12
#3090000
b100110101 7
0&
0#
02
#3095000
bx0x0xxx0xxxxxxxx00000000000x0000 %
1&
1#
12
#3100000
b100110110 7
0&
0#
02
#3105000
bx0x0xxxxxxxxxxx00000000000x0000 %
1&
1#
12
#3110000
b100110111 7
0&
0#
02
#3115000
bx0x0xxxxxxxxxx00000000x0000000 %
1&
1#
12
#3120000
b100111000 7
0&
0#
02
#3125000
bx0x0xxxxxxxxx0000000000000000 %
1&
1#
12
#3130000
b100111001 7
0&
0#
02
#3135000
z,
bx0x0xxxxxxxx00000z0000000000 %
1&
1#
12
#3140000
b100111010 7
0&
0#
02
#3145000
bx0xxxxxxxxx00000z0000000000 %
1&
1#
12
#3150000
b100111011 7
0&
0#
02
#3155000
0,
bx0xxxxxxxx0000000000000000 %
1&
1#
12
#3160000
b100111100 7
0&
0#
02
#3165000
bx1xxxxxxx0000000000000000 %
1&
1#
12
#3170000
b100111101 7
0&
0#
02
#3175000
bx10xxxxxx0000000000000000 %
1&
1#
12
#3180000
b100111110 7
0&
0#
02
#3185000
z)
bx0zxxxxx000000000x000000 %
1&
1#
12
#3190000
b100111111 7
0&
0#
02
#3195000
bxz0xxxx0000000000000000 %
1&
1#
12
#3200000
b101000000 7
0&
0#
02
#3205000
x)
bx00xxx0000000000000000 %
1&
1#
12
#3210000
b101000001 7
0&
0#
02
#3215000
bx00xx000000000000000x %
1&
1#
12
#3220000
b101000010 7
0&
0#
02
